0xb0f0 <-- stripped by FLIC in CoreCrate machine
0xcaf0 <-- stripped by FLIC in CoreCrate machine, Bits[3:0] are indeterminate
0xff12 <-- stripped by FLIC in CoreCrate machine
0x34ff <-- stripped by FLIC in CoreCrate machine
0x0003 <-- 0 | RunNumber[30:16], RunNumber=0x3652e
0x652e <-- RunNumber[15:0], RunNumber=0x3652e
0x0008 <-- ExtendedLevel1ID[31:16], word=0x84d7f
0x4d7f <-- ExtendedLevel1ID[15:0], word=0x84d7f
0x0000 <-- Res
0x0520 <-- Res[3:0] | BCID[11:0], word=0x520
0x0000 <-- Res
0x0000 <-- Res[7:0] | L1TriggerType[7:0], word=0x0
0x0000 <-- Res[7:0] | DetectorEventType[7:0]
0x0000 <-- Res[11:0] | TIM[3:0]
0x0bda <-- Res[3:0] | L | 0xb | 0xd | 0xa, word=0xbda048e
0x048e <-- Sector Number
0x0016 <-- Res[3:0] | TFNum[3:0] | Res | Tower[6:0], word=0x160fff
0x0fff <-- Res[3:0] | Layermap[11:0]
0x0000 <-- Res[7:0] | RoadID[23:16], word=0x6
0x0006 <-- RoadID[15:0]
0x0cc0 <-- Track chi2
0x7ff4 <-- Track d0
0x6104 <-- Track z0
0x855a <-- Track coth
0x325b <-- Track phi
0xa25d <-- Track curv
0x1299 <-- (IBLa) 0 | ColWidth[2:0] | ColCoord[11:0]
0x235e <-- (IBLb) s | RowWidth[2:0] | RowCoord[11:0]
0x14b4 <-- (PL0a) 0 | ColWidth[2:0] | ColCoord[11:0]
0x254c <-- (PL0b) s | RowWidth[2:0] | RowCoord[11:0]
0x16c0 <-- (PL1a) 0 | ColWidth[2:0] | ColCoord[11:0]
0x2453 <-- (PL1b) s | RowWidth[2:0] | RowCoord[11:0]
0x1890 <-- (PL2a) 0 | ColWidth[2:0] | ColCoord[11:0]
0x1470 <-- (PL2b) s | RowWidth[2:0] | RowCoord[11:0]
0x0550 <-- (SAx0) 0 | Width[2:0] | Res | Coord[10:0]
0x0572 <-- (SSt0) 0 | Width[2:0] | Res | Coord[10:0]
0x0189 <-- (SAx1) 0 | Width[2:0] | Res | Coord[10:0]
0x0184 <-- (SSt1) 0 | Width[2:0] | Res | Coord[10:0]
0x0393 <-- (SAx2) 0 | Width[2:0] | Res | Coord[10:0]
0x0381 <-- (SSt2) 0 | Width[2:0] | Res | Coord[10:0]
0x0558 <-- (SAx3) 0 | Width[2:0] | Res | Coord[10:0]
0x057f <-- (SSt3) 0 | Width[2:0] | Res | Coord[10:0]
0xe0da <-- Begin trailer debug block
0x0000 <-- Length of debug block | Indeterminate[3:0]
0xe0df <-- End debug block
0x0000 <-- Length of debug block | Indeterminate[3:0]
0x0000 <-- L1ID[31:16]
0x0000 <-- L1ID[15:0]
0x0000 <-- ErrorFlag[31:16]
0x0001 <-- ErrorFlag[15:0]
0x0000 <-- Res
0x0000 <-- Res
0x0000 <-- Res
0x0000 <-- Res
0xe0f0 <-- stripped by FLI in CoreCrateRcvr machine
0xa5a5 <-- stripped by FLI in CoreCrateRcvr machine
0x5a5a <-- stripped by FLI in CoreCrateRcvr machine
0x0e0f <-- stripped by FLI in CoreCrateRcvr machine
