0xb0f0 <-- stripped by FLIC in CoreCrate machine
0xcaf0 <-- stripped by FLIC in CoreCrate machine, Bits[3:0] are indeterminate
0xff12 <-- stripped by FLIC in CoreCrate machine
0x34ff <-- stripped by FLIC in CoreCrate machine
0x0003 <-- 0 | RunNumber[30:16], RunNumber=0x3652e
0x652e <-- RunNumber[15:0], RunNumber=0x3652e
0x0008 <-- ExtendedLevel1ID[31:16], word=0x86747
0x6747 <-- ExtendedLevel1ID[15:0], word=0x86747
0x0000 <-- Res
0x0a66 <-- Res[3:0] | BCID[11:0], word=0xa66
0x0000 <-- Res
0x0000 <-- Res[7:0] | L1TriggerType[7:0], word=0x0
0x0000 <-- Res[7:0] | DetectorEventType[7:0]
0x0000 <-- Res[11:0] | TIM[3:0]
0x0bda <-- Res[3:0] | L | 0xb | 0xd | 0xa, word=0xbda2940
0x2940 <-- Sector Number
0x0016 <-- Res[3:0] | TFNum[3:0] | Res | Tower[6:0], word=0x160ffb
0x0ffb <-- Res[3:0] | Layermap[11:0]
0x0000 <-- Res[7:0] | RoadID[23:16], word=0x3b
0x003b <-- RoadID[15:0]
0x13d2 <-- Track chi2
0x7fef <-- Track d0
0x57f9 <-- Track z0
0x8cb1 <-- Track coth
0x3da7 <-- Track phi
0x9b67 <-- Track curv
0x2154 <-- (IBLa) 0 | ColWidth[2:0] | ColCoord[11:0]
0x2024 <-- (IBLb) s | RowWidth[2:0] | RowCoord[11:0]
0x14cc <-- (PL0a) 0 | ColWidth[2:0] | ColCoord[11:0]
0x2574 <-- (PL0b) s | RowWidth[2:0] | RowCoord[11:0]
0x0000 <-- (PL1a) 0 | ColWidth[2:0] | ColCoord[11:0]
0x0000 <-- (PL1b) s | RowWidth[2:0] | RowCoord[11:0]
0x247c <-- (PL2a) 0 | ColWidth[2:0] | ColCoord[11:0]
0x2862 <-- (PL2b) s | RowWidth[2:0] | RowCoord[11:0]
0x0272 <-- (SAx0) 0 | Width[2:0] | Res | Coord[10:0]
0x0295 <-- (SSt0) 0 | Width[2:0] | Res | Coord[10:0]
0x00ea <-- (SAx1) 0 | Width[2:0] | Res | Coord[10:0]
0x0106 <-- (SSt1) 0 | Width[2:0] | Res | Coord[10:0]
0x0553 <-- (SAx2) 0 | Width[2:0] | Res | Coord[10:0]
0x0582 <-- (SSt2) 0 | Width[2:0] | Res | Coord[10:0]
0x03a7 <-- (SAx3) 0 | Width[2:0] | Res | Coord[10:0]
0x03b4 <-- (SSt3) 0 | Width[2:0] | Res | Coord[10:0]
0x0bda <-- Res[3:0] | L | 0xb | 0xd | 0xa, word=0xbda080e
0x080e <-- Sector Number
0x0016 <-- Res[3:0] | TFNum[3:0] | Res | Tower[6:0], word=0x160fff
0x0fff <-- Res[3:0] | Layermap[11:0]
0x0000 <-- Res[7:0] | RoadID[23:16], word=0x23
0x0023 <-- RoadID[15:0]
0x3437 <-- Track chi2
0x8056 <-- Track d0
0x631b <-- Track z0
0x840c <-- Track coth
0x2c46 <-- Track phi
0x316c <-- Track curv
0x12fd <-- (IBLa) 0 | ColWidth[2:0] | ColCoord[11:0]
0x1089 <-- (IBLb) s | RowWidth[2:0] | RowCoord[11:0]
0x14cc <-- (PL0a) 0 | ColWidth[2:0] | ColCoord[11:0]
0x1108 <-- (PL0b) s | RowWidth[2:0] | RowCoord[11:0]
0x2678 <-- (PL1a) 0 | ColWidth[2:0] | ColCoord[11:0]
0x271c <-- (PL1b) s | RowWidth[2:0] | RowCoord[11:0]
0x17d0 <-- (PL2a) 0 | ColWidth[2:0] | ColCoord[11:0]
0x25bd <-- (PL2b) s | RowWidth[2:0] | RowCoord[11:0]
0x046a <-- (SAx0) 0 | Width[2:0] | Res | Coord[10:0]
0x04a0 <-- (SSt0) 0 | Width[2:0] | Res | Coord[10:0]
0x01a8 <-- (SAx1) 0 | Width[2:0] | Res | Coord[10:0]
0x0186 <-- (SSt1) 0 | Width[2:0] | Res | Coord[10:0]
0x04f8 <-- (SAx2) 0 | Width[2:0] | Res | Coord[10:0]
0x050a <-- (SSt2) 0 | Width[2:0] | Res | Coord[10:0]
0x02ed <-- (SAx3) 0 | Width[2:0] | Res | Coord[10:0]
0x02ef <-- (SSt3) 0 | Width[2:0] | Res | Coord[10:0]
0x0bda <-- Res[3:0] | L | 0xb | 0xd | 0xa, word=0xbda5773
0x5773 <-- Sector Number
0x0016 <-- Res[3:0] | TFNum[3:0] | Res | Tower[6:0], word=0x160fff
0x0fff <-- Res[3:0] | Layermap[11:0]
0x0000 <-- Res[7:0] | RoadID[23:16], word=0x20
0x0020 <-- RoadID[15:0]
0x0f16 <-- Track chi2
0x8027 <-- Track d0
0x5a76 <-- Track z0
0x8b55 <-- Track coth
0x2ff3 <-- Track phi
0xa851 <-- Track curv
0x11e5 <-- (IBLa) 0 | ColWidth[2:0] | ColCoord[11:0]
0x221e <-- (IBLb) s | RowWidth[2:0] | RowCoord[11:0]
0x1500 <-- (PL0a) 0 | ColWidth[2:0] | ColCoord[11:0]
0x2344 <-- (PL0b) s | RowWidth[2:0] | RowCoord[11:0]
0x1940 <-- (PL1a) 0 | ColWidth[2:0] | ColCoord[11:0]
0x10c0 <-- (PL1b) s | RowWidth[2:0] | RowCoord[11:0]
0x13d0 <-- (PL2a) 0 | ColWidth[2:0] | ColCoord[11:0]
0x18d8 <-- (PL2b) s | RowWidth[2:0] | RowCoord[11:0]
0x034c <-- (SAx0) 0 | Width[2:0] | Res | Coord[10:0]
0x030a <-- (SSt0) 0 | Width[2:0] | Res | Coord[10:0]
0x04b4 <-- (SAx1) 0 | Width[2:0] | Res | Coord[10:0]
0x04ac <-- (SSt1) 0 | Width[2:0] | Res | Coord[10:0]
0x003e <-- (SAx2) 0 | Width[2:0] | Res | Coord[10:0]
0x0007 <-- (SSt2) 0 | Width[2:0] | Res | Coord[10:0]
0x018b <-- (SAx3) 0 | Width[2:0] | Res | Coord[10:0]
0x0176 <-- (SSt3) 0 | Width[2:0] | Res | Coord[10:0]
0x0bda <-- Res[3:0] | L | 0xb | 0xd | 0xa, word=0xbda6c00
0x6c00 <-- Sector Number
0x0016 <-- Res[3:0] | TFNum[3:0] | Res | Tower[6:0], word=0x160fff
0x0fff <-- Res[3:0] | Layermap[11:0]
0x0000 <-- Res[7:0] | RoadID[23:16], word=0x18
0x0018 <-- RoadID[15:0]
0x0859 <-- Track chi2
0x7ff6 <-- Track d0
0x5800 <-- Track z0
0x9179 <-- Track coth
0x36c6 <-- Track phi
0x8991 <-- Track curv
0x2316 <-- (IBLa) 0 | ColWidth[2:0] | ColCoord[11:0]
0x15d1 <-- (IBLb) s | RowWidth[2:0] | RowCoord[11:0]
0x27c5 <-- (PL0a) 0 | ColWidth[2:0] | ColCoord[11:0]
0x2993 <-- (PL0b) s | RowWidth[2:0] | RowCoord[11:0]
0x13d0 <-- (PL1a) 0 | ColWidth[2:0] | ColCoord[11:0]
0x219d <-- (PL1b) s | RowWidth[2:0] | RowCoord[11:0]
0x1090 <-- (PL2a) 0 | ColWidth[2:0] | ColCoord[11:0]
0x24c4 <-- (PL2b) s | RowWidth[2:0] | RowCoord[11:0]
0x03a5 <-- (SAx0) 0 | Width[2:0] | Res | Coord[10:0]
0x036f <-- (SSt0) 0 | Width[2:0] | Res | Coord[10:0]
0x0136 <-- (SAx1) 0 | Width[2:0] | Res | Coord[10:0]
0x0145 <-- (SSt1) 0 | Width[2:0] | Res | Coord[10:0]
0x0493 <-- (SAx2) 0 | Width[2:0] | Res | Coord[10:0]
0x04b4 <-- (SSt2) 0 | Width[2:0] | Res | Coord[10:0]
0x0210 <-- (SAx3) 0 | Width[2:0] | Res | Coord[10:0]
0x0244 <-- (SSt3) 0 | Width[2:0] | Res | Coord[10:0]
0x0bda <-- Res[3:0] | L | 0xb | 0xd | 0xa, word=0xbda132f
0x132f <-- Sector Number
0x0016 <-- Res[3:0] | TFNum[3:0] | Res | Tower[6:0], word=0x160ffb
0x0ffb <-- Res[3:0] | Layermap[11:0]
0x0000 <-- Res[7:0] | RoadID[23:16], word=0x9
0x0009 <-- RoadID[15:0]
0x86c3 <-- Track chi2
0x7fa3 <-- Track d0
0x57fd <-- Track z0
0x8976 <-- Track coth
0x3ef7 <-- Track phi
0x6741 <-- Track curv
0x104b <-- (IBLa) 0 | ColWidth[2:0] | ColCoord[11:0]
0x20e6 <-- (IBLb) s | RowWidth[2:0] | RowCoord[11:0]
0x1340 <-- (PL0a) 0 | ColWidth[2:0] | ColCoord[11:0]
0x26d4 <-- (PL0b) s | RowWidth[2:0] | RowCoord[11:0]
0x0000 <-- (PL1a) 0 | ColWidth[2:0] | ColCoord[11:0]
0x0000 <-- (PL1b) s | RowWidth[2:0] | RowCoord[11:0]
0x1030 <-- (PL2a) 0 | ColWidth[2:0] | ColCoord[11:0]
0x233c <-- (PL2b) s | RowWidth[2:0] | RowCoord[11:0]
0x0558 <-- (SAx0) 0 | Width[2:0] | Res | Coord[10:0]
0x0544 <-- (SSt0) 0 | Width[2:0] | Res | Coord[10:0]
0x0513 <-- (SAx1) 0 | Width[2:0] | Res | Coord[10:0]
0x04d8 <-- (SSt1) 0 | Width[2:0] | Res | Coord[10:0]
0x0508 <-- (SAx2) 0 | Width[2:0] | Res | Coord[10:0]
0x0516 <-- (SSt2) 0 | Width[2:0] | Res | Coord[10:0]
0x0502 <-- (SAx3) 0 | Width[2:0] | Res | Coord[10:0]
0x051e <-- (SSt3) 0 | Width[2:0] | Res | Coord[10:0]
0x0bda <-- Res[3:0] | L | 0xb | 0xd | 0xa, word=0xbda4b7f
0x4b7f <-- Sector Number
0x0016 <-- Res[3:0] | TFNum[3:0] | Res | Tower[6:0], word=0x160fff
0x0fff <-- Res[3:0] | Layermap[11:0]
0x0000 <-- Res[7:0] | RoadID[23:16], word=0x1
0x0001 <-- RoadID[15:0]
0x46de <-- Track chi2
0x8009 <-- Track d0
0x580c <-- Track z0
0x8d6b <-- Track coth
0x38c6 <-- Track phi
0x494e <-- Track curv
0x21d7 <-- (IBLa) 0 | ColWidth[2:0] | ColCoord[11:0]
0x1721 <-- (IBLb) s | RowWidth[2:0] | RowCoord[11:0]
0x1500 <-- (PL0a) 0 | ColWidth[2:0] | ColCoord[11:0]
0x21e5 <-- (PL0b) s | RowWidth[2:0] | RowCoord[11:0]
0x10a0 <-- (PL1a) 0 | ColWidth[2:0] | ColCoord[11:0]
0x25ce <-- (PL1b) s | RowWidth[2:0] | RowCoord[11:0]
0x14e0 <-- (PL2a) 0 | ColWidth[2:0] | ColCoord[11:0]
0x2153 <-- (PL2b) s | RowWidth[2:0] | RowCoord[11:0]
0x018e <-- (SAx0) 0 | Width[2:0] | Res | Coord[10:0]
0x01a0 <-- (SSt0) 0 | Width[2:0] | Res | Coord[10:0]
0x00b0 <-- (SAx1) 0 | Width[2:0] | Res | Coord[10:0]
0x00dc <-- (SSt1) 0 | Width[2:0] | Res | Coord[10:0]
0x0039 <-- (SAx2) 0 | Width[2:0] | Res | Coord[10:0]
0x004c <-- (SSt2) 0 | Width[2:0] | Res | Coord[10:0]
0x0578 <-- (SAx3) 0 | Width[2:0] | Res | Coord[10:0]
0x0596 <-- (SSt3) 0 | Width[2:0] | Res | Coord[10:0]
0xe0da <-- Begin trailer debug block
0x0000 <-- Length of debug block | Indeterminate[3:0]
0xe0df <-- End debug block
0x0000 <-- Length of debug block | Indeterminate[3:0]
0x0000 <-- L1ID[31:16]
0x0000 <-- L1ID[15:0]
0x0000 <-- ErrorFlag[31:16]
0x0001 <-- ErrorFlag[15:0]
0x0000 <-- Res
0x0000 <-- Res
0x0000 <-- Res
0x0000 <-- Res
0xe0f0 <-- stripped by FLI in CoreCrateRcvr machine
0xa5a5 <-- stripped by FLI in CoreCrateRcvr machine
0x5a5a <-- stripped by FLI in CoreCrateRcvr machine
0x0e0f <-- stripped by FLI in CoreCrateRcvr machine
