0xb0f0 <-- stripped by FLIC in CoreCrate machine
0xcaf0 <-- stripped by FLIC in CoreCrate machine, Bits[3:0] are indeterminate
0xff12 <-- stripped by FLIC in CoreCrate machine
0x34ff <-- stripped by FLIC in CoreCrate machine
0x0003 <-- 0 | RunNumber[30:16], RunNumber=0x3652e
0x652e <-- RunNumber[15:0], RunNumber=0x3652e
0x0008 <-- ExtendedLevel1ID[31:16], word=0x869f0
0x69f0 <-- ExtendedLevel1ID[15:0], word=0x869f0
0x0000 <-- Res
0x055a <-- Res[3:0] | BCID[11:0], word=0x55a
0x0000 <-- Res
0x0000 <-- Res[7:0] | L1TriggerType[7:0], word=0x0
0x0000 <-- Res[7:0] | DetectorEventType[7:0]
0x0000 <-- Res[11:0] | TIM[3:0]
0x0bda <-- Res[3:0] | L | 0xb | 0xd | 0xa, word=0xbda1453
0x1453 <-- Sector Number
0x0016 <-- Res[3:0] | TFNum[3:0] | Res | Tower[6:0], word=0x160fbf
0x0fbf <-- Res[3:0] | Layermap[11:0]
0x0000 <-- Res[7:0] | RoadID[23:16], word=0x315
0x0315 <-- RoadID[15:0]
0x6d16 <-- Track chi2
0x7fe1 <-- Track d0
0x9dd2 <-- Track z0
0x8984 <-- Track coth
0x2d2b <-- Track phi
0xc252 <-- Track curv
0x1249 <-- (IBLa) 0 | ColWidth[2:0] | ColCoord[11:0]
0x1091 <-- (IBLb) s | RowWidth[2:0] | RowCoord[11:0]
0x1210 <-- (PL0a) 0 | ColWidth[2:0] | ColCoord[11:0]
0x10d8 <-- (PL0b) s | RowWidth[2:0] | RowCoord[11:0]
0x15d0 <-- (PL1a) 0 | ColWidth[2:0] | ColCoord[11:0]
0x1570 <-- (PL1b) s | RowWidth[2:0] | RowCoord[11:0]
0x28db <-- (PL2a) 0 | ColWidth[2:0] | ColCoord[11:0]
0x11f0 <-- (PL2b) s | RowWidth[2:0] | RowCoord[11:0]
0x0009 <-- (SAx0) 0 | Width[2:0] | Res | Coord[10:0]
0x002d <-- (SSt0) 0 | Width[2:0] | Res | Coord[10:0]
0x0000 <-- (SAx1) 0 | Width[2:0] | Res | Coord[10:0]
0x0082 <-- (SSt1) 0 | Width[2:0] | Res | Coord[10:0]
0x00ce <-- (SAx2) 0 | Width[2:0] | Res | Coord[10:0]
0x009e <-- (SSt2) 0 | Width[2:0] | Res | Coord[10:0]
0x009e <-- (SAx3) 0 | Width[2:0] | Res | Coord[10:0]
0x0081 <-- (SSt3) 0 | Width[2:0] | Res | Coord[10:0]
0x0bda <-- Res[3:0] | L | 0xb | 0xd | 0xa, word=0xbda1e58
0x1e58 <-- Sector Number
0x0016 <-- Res[3:0] | TFNum[3:0] | Res | Tower[6:0], word=0x160f3f
0x0f3f <-- Res[3:0] | Layermap[11:0]
0x0000 <-- Res[7:0] | RoadID[23:16], word=0x2ff
0x02ff <-- RoadID[15:0]
0x163b <-- Track chi2
0x802a <-- Track d0
0x8310 <-- Track z0
0x875b <-- Track coth
0x2fdf <-- Track phi
0x671c <-- Track curv
0x13df <-- (IBLa) 0 | ColWidth[2:0] | ColCoord[11:0]
0x223e <-- (IBLb) s | RowWidth[2:0] | RowCoord[11:0]
0x100c <-- (PL0a) 0 | ColWidth[2:0] | ColCoord[11:0]
0x13b8 <-- (PL0b) s | RowWidth[2:0] | RowCoord[11:0]
0x12c0 <-- (PL1a) 0 | ColWidth[2:0] | ColCoord[11:0]
0x21d2 <-- (PL1b) s | RowWidth[2:0] | RowCoord[11:0]
0x2533 <-- (PL2a) 0 | ColWidth[2:0] | ColCoord[11:0]
0x1178 <-- (PL2b) s | RowWidth[2:0] | RowCoord[11:0]
0x0560 <-- (SAx0) 0 | Width[2:0] | Res | Coord[10:0]
0x0582 <-- (SSt0) 0 | Width[2:0] | Res | Coord[10:0]
0x0000 <-- (SAx1) 0 | Width[2:0] | Res | Coord[10:0]
0x0000 <-- (SSt1) 0 | Width[2:0] | Res | Coord[10:0]
0x051e <-- (SAx2) 0 | Width[2:0] | Res | Coord[10:0]
0x04fc <-- (SSt2) 0 | Width[2:0] | Res | Coord[10:0]
0x0250 <-- (SAx3) 0 | Width[2:0] | Res | Coord[10:0]
0x021c <-- (SSt3) 0 | Width[2:0] | Res | Coord[10:0]
0x0bda <-- Res[3:0] | L | 0xb | 0xd | 0xa, word=0xbda0616
0x0616 <-- Sector Number
0x0016 <-- Res[3:0] | TFNum[3:0] | Res | Tower[6:0], word=0x160ff7
0x0ff7 <-- Res[3:0] | Layermap[11:0]
0x0000 <-- Res[7:0] | RoadID[23:16], word=0x2f5
0x02f5 <-- RoadID[15:0]
0x0cec <-- Track chi2
0x8bc5 <-- Track d0
0x9d6d <-- Track z0
0x7e55 <-- Track coth
0x39c3 <-- Track phi
0x91d8 <-- Track curv
0x14f7 <-- (IBLa) 0 | ColWidth[2:0] | ColCoord[11:0]
0x2984 <-- (IBLb) s | RowWidth[2:0] | RowCoord[11:0]
0x1610 <-- (PL0a) 0 | ColWidth[2:0] | ColCoord[11:0]
0x1430 <-- (PL0b) s | RowWidth[2:0] | RowCoord[11:0]
0x1560 <-- (PL1a) 0 | ColWidth[2:0] | ColCoord[11:0]
0x17f8 <-- (PL1b) s | RowWidth[2:0] | RowCoord[11:0]
0x0000 <-- (PL2a) 0 | ColWidth[2:0] | ColCoord[11:0]
0x0000 <-- (PL2b) s | RowWidth[2:0] | RowCoord[11:0]
0x0010 <-- (SAx0) 0 | Width[2:0] | Res | Coord[10:0]
0x001a <-- (SSt0) 0 | Width[2:0] | Res | Coord[10:0]
0x03e6 <-- (SAx1) 0 | Width[2:0] | Res | Coord[10:0]
0x03d2 <-- (SSt1) 0 | Width[2:0] | Res | Coord[10:0]
0x01e4 <-- (SAx2) 0 | Width[2:0] | Res | Coord[10:0]
0x01fe <-- (SSt2) 0 | Width[2:0] | Res | Coord[10:0]
0x057e <-- (SAx3) 0 | Width[2:0] | Res | Coord[10:0]
0x055a <-- (SSt3) 0 | Width[2:0] | Res | Coord[10:0]
0x0bda <-- Res[3:0] | L | 0xb | 0xd | 0xa, word=0xbda79b6
0x79b6 <-- Sector Number
0x0016 <-- Res[3:0] | TFNum[3:0] | Res | Tower[6:0], word=0x160dff
0x0dff <-- Res[3:0] | Layermap[11:0]
0x0000 <-- Res[7:0] | RoadID[23:16], word=0x2ce
0x02ce <-- RoadID[15:0]
0x4cbd <-- Track chi2
0x7fef <-- Track d0
0x839f <-- Track z0
0x8212 <-- Track coth
0x4019 <-- Track phi
0xbc34 <-- Track curv
0x125d <-- (IBLa) 0 | ColWidth[2:0] | ColCoord[11:0]
0x1151 <-- (IBLb) s | RowWidth[2:0] | RowCoord[11:0]
0x274a <-- (PL0a) 0 | ColWidth[2:0] | ColCoord[11:0]
0x273b <-- (PL0b) s | RowWidth[2:0] | RowCoord[11:0]
0x1810 <-- (PL1a) 0 | ColWidth[2:0] | ColCoord[11:0]
0x24fc <-- (PL1b) s | RowWidth[2:0] | RowCoord[11:0]
0x18b0 <-- (PL2a) 0 | ColWidth[2:0] | ColCoord[11:0]
0x12b0 <-- (PL2b) s | RowWidth[2:0] | RowCoord[11:0]
0x0362 <-- (SAx0) 0 | Width[2:0] | Res | Coord[10:0]
0x0368 <-- (SSt0) 0 | Width[2:0] | Res | Coord[10:0]
0x01bc <-- (SAx1) 0 | Width[2:0] | Res | Coord[10:0]
0x01c2 <-- (SSt1) 0 | Width[2:0] | Res | Coord[10:0]
0x05ce <-- (SAx2) 0 | Width[2:0] | Res | Coord[10:0]
0x0000 <-- (SSt2) 0 | Width[2:0] | Res | Coord[10:0]
0x03b4 <-- (SAx3) 0 | Width[2:0] | Res | Coord[10:0]
0x03ca <-- (SSt3) 0 | Width[2:0] | Res | Coord[10:0]
0x0bda <-- Res[3:0] | L | 0xb | 0xd | 0xa, word=0xbda0032
0x0032 <-- Sector Number
0x0016 <-- Res[3:0] | TFNum[3:0] | Res | Tower[6:0], word=0x160fbe
0x0fbe <-- Res[3:0] | Layermap[11:0]
0x0000 <-- Res[7:0] | RoadID[23:16], word=0xf5
0x00f5 <-- RoadID[15:0]
0x131b <-- Track chi2
0x7f54 <-- Track d0
0x9da7 <-- Track z0
0x7fd1 <-- Track coth
0x3ddd <-- Track phi
0x2cc8 <-- Track curv
0x0000 <-- (IBLa) 0 | ColWidth[2:0] | ColCoord[11:0]
0x0000 <-- (IBLb) s | RowWidth[2:0] | RowCoord[11:0]
0x16e0 <-- (PL0a) 0 | ColWidth[2:0] | ColCoord[11:0]
0x262d <-- (PL0b) s | RowWidth[2:0] | RowCoord[11:0]
0x16d0 <-- (PL1a) 0 | ColWidth[2:0] | ColCoord[11:0]
0x2445 <-- (PL1b) s | RowWidth[2:0] | RowCoord[11:0]
0x16c0 <-- (PL2a) 0 | ColWidth[2:0] | ColCoord[11:0]
0x1320 <-- (PL2b) s | RowWidth[2:0] | RowCoord[11:0]
0x00a8 <-- (SAx0) 0 | Width[2:0] | Res | Coord[10:0]
0x0098 <-- (SSt0) 0 | Width[2:0] | Res | Coord[10:0]
0x0000 <-- (SAx1) 0 | Width[2:0] | Res | Coord[10:0]
0x0162 <-- (SSt1) 0 | Width[2:0] | Res | Coord[10:0]
0x0268 <-- (SAx2) 0 | Width[2:0] | Res | Coord[10:0]
0x025b <-- (SSt2) 0 | Width[2:0] | Res | Coord[10:0]
0x03b4 <-- (SAx3) 0 | Width[2:0] | Res | Coord[10:0]
0x03be <-- (SSt3) 0 | Width[2:0] | Res | Coord[10:0]
0x0bda <-- Res[3:0] | L | 0xb | 0xd | 0xa, word=0xbda05cf
0x05cf <-- Sector Number
0x0016 <-- Res[3:0] | TFNum[3:0] | Res | Tower[6:0], word=0x160ffd
0x0ffd <-- Res[3:0] | Layermap[11:0]
0x0000 <-- Res[7:0] | RoadID[23:16], word=0xf1
0x00f1 <-- RoadID[15:0]
0x3a1f <-- Track chi2
0x7fba <-- Track d0
0x9dd0 <-- Track z0
0x8ddf <-- Track coth
0x3f7f <-- Track phi
0x31d6 <-- Track curv
0x23b1 <-- (IBLa) 0 | ColWidth[2:0] | ColCoord[11:0]
0x1151 <-- (IBLb) s | RowWidth[2:0] | RowCoord[11:0]
0x0000 <-- (PL0a) 0 | ColWidth[2:0] | ColCoord[11:0]
0x0000 <-- (PL0b) s | RowWidth[2:0] | RowCoord[11:0]
0x203a <-- (PL1a) 0 | ColWidth[2:0] | ColCoord[11:0]
0x26ec <-- (PL1b) s | RowWidth[2:0] | RowCoord[11:0]
0x14cc <-- (PL2a) 0 | ColWidth[2:0] | ColCoord[11:0]
0x2663 <-- (PL2b) s | RowWidth[2:0] | RowCoord[11:0]
0x0198 <-- (SAx0) 0 | Width[2:0] | Res | Coord[10:0]
0x0170 <-- (SSt0) 0 | Width[2:0] | Res | Coord[10:0]
0x0266 <-- (SAx1) 0 | Width[2:0] | Res | Coord[10:0]
0x0251 <-- (SSt1) 0 | Width[2:0] | Res | Coord[10:0]
0x039e <-- (SAx2) 0 | Width[2:0] | Res | Coord[10:0]
0x0376 <-- (SSt2) 0 | Width[2:0] | Res | Coord[10:0]
0x050a <-- (SAx3) 0 | Width[2:0] | Res | Coord[10:0]
0x04f4 <-- (SSt3) 0 | Width[2:0] | Res | Coord[10:0]
0x0bda <-- Res[3:0] | L | 0xb | 0xd | 0xa, word=0xbda08b0
0x08b0 <-- Sector Number
0x0016 <-- Res[3:0] | TFNum[3:0] | Res | Tower[6:0], word=0x160bfe
0x0bfe <-- Res[3:0] | Layermap[11:0]
0x0000 <-- Res[7:0] | RoadID[23:16], word=0xea
0x00ea <-- RoadID[15:0]
0x3f39 <-- Track chi2
0x80ae <-- Track d0
0x9db6 <-- Track z0
0x7e49 <-- Track coth
0x31d5 <-- Track phi
0xd3a4 <-- Track curv
0x0000 <-- (IBLa) 0 | ColWidth[2:0] | ColCoord[11:0]
0x0000 <-- (IBLb) s | RowWidth[2:0] | RowCoord[11:0]
0x1620 <-- (PL0a) 0 | ColWidth[2:0] | ColCoord[11:0]
0x249c <-- (PL0b) s | RowWidth[2:0] | RowCoord[11:0]
0x1580 <-- (PL1a) 0 | ColWidth[2:0] | ColCoord[11:0]
0x12a0 <-- (PL1b) s | RowWidth[2:0] | RowCoord[11:0]
0x14f0 <-- (PL2a) 0 | ColWidth[2:0] | ColCoord[11:0]
0x1188 <-- (PL2b) s | RowWidth[2:0] | RowCoord[11:0]
0x0340 <-- (SAx0) 0 | Width[2:0] | Res | Coord[10:0]
0x034a <-- (SSt0) 0 | Width[2:0] | Res | Coord[10:0]
0x0442 <-- (SAx1) 0 | Width[2:0] | Res | Coord[10:0]
0x0430 <-- (SSt1) 0 | Width[2:0] | Res | Coord[10:0]
0x0509 <-- (SAx2) 0 | Width[2:0] | Res | Coord[10:0]
0x0523 <-- (SSt2) 0 | Width[2:0] | Res | Coord[10:0]
0x0000 <-- (SAx3) 0 | Width[2:0] | Res | Coord[10:0]
0x0538 <-- (SSt3) 0 | Width[2:0] | Res | Coord[10:0]
0x0bda <-- Res[3:0] | L | 0xb | 0xd | 0xa, word=0xbda0ef2
0x0ef2 <-- Sector Number
0x0016 <-- Res[3:0] | TFNum[3:0] | Res | Tower[6:0], word=0x160fff
0x0fff <-- Res[3:0] | Layermap[11:0]
0x0000 <-- Res[7:0] | RoadID[23:16], word=0xe8
0x00e8 <-- RoadID[15:0]
0x23a0 <-- Track chi2
0x7fce <-- Track d0
0x9da7 <-- Track z0
0x843f <-- Track coth
0x2d47 <-- Track phi
0xb2e5 <-- Track curv
0x1087 <-- (IBLa) 0 | ColWidth[2:0] | ColCoord[11:0]
0x20a7 <-- (IBLb) s | RowWidth[2:0] | RowCoord[11:0]
0x1900 <-- (PL0a) 0 | ColWidth[2:0] | ColCoord[11:0]
0x10e8 <-- (PL0b) s | RowWidth[2:0] | RowCoord[11:0]
0x1124 <-- (PL1a) 0 | ColWidth[2:0] | ColCoord[11:0]
0x2605 <-- (PL1b) s | RowWidth[2:0] | RowCoord[11:0]
0x1280 <-- (PL2a) 0 | ColWidth[2:0] | ColCoord[11:0]
0x22f5 <-- (PL2b) s | RowWidth[2:0] | RowCoord[11:0]
0x00bf <-- (SAx0) 0 | Width[2:0] | Res | Coord[10:0]
0x00d0 <-- (SSt0) 0 | Width[2:0] | Res | Coord[10:0]
0x018d <-- (SAx1) 0 | Width[2:0] | Res | Coord[10:0]
0x018e <-- (SSt1) 0 | Width[2:0] | Res | Coord[10:0]
0x023e <-- (SAx2) 0 | Width[2:0] | Res | Coord[10:0]
0x0228 <-- (SSt2) 0 | Width[2:0] | Res | Coord[10:0]
0x029c <-- (SAx3) 0 | Width[2:0] | Res | Coord[10:0]
0x02c4 <-- (SSt3) 0 | Width[2:0] | Res | Coord[10:0]
0x0bda <-- Res[3:0] | L | 0xb | 0xd | 0xa, word=0xbda36b4
0x36b4 <-- Sector Number
0x0016 <-- Res[3:0] | TFNum[3:0] | Res | Tower[6:0], word=0x160fff
0x0fff <-- Res[3:0] | Layermap[11:0]
0x0000 <-- Res[7:0] | RoadID[23:16], word=0xda
0x00da <-- RoadID[15:0]
0x346b <-- Track chi2
0x8004 <-- Track d0
0x82fd <-- Track z0
0x8532 <-- Track coth
0x306f <-- Track phi
0x36af <-- Track curv
0x1329 <-- (IBLa) 0 | ColWidth[2:0] | ColCoord[11:0]
0x22a4 <-- (IBLb) s | RowWidth[2:0] | RowCoord[11:0]
0x1880 <-- (PL0a) 0 | ColWidth[2:0] | ColCoord[11:0]
0x2436 <-- (PL0b) s | RowWidth[2:0] | RowCoord[11:0]
0x10e0 <-- (PL1a) 0 | ColWidth[2:0] | ColCoord[11:0]
0x13a8 <-- (PL1b) s | RowWidth[2:0] | RowCoord[11:0]
0x12b0 <-- (PL2a) 0 | ColWidth[2:0] | ColCoord[11:0]
0x248d <-- (PL2b) s | RowWidth[2:0] | RowCoord[11:0]
0x01bc <-- (SAx0) 0 | Width[2:0] | Res | Coord[10:0]
0x0188 <-- (SSt0) 0 | Width[2:0] | Res | Coord[10:0]
0x055a <-- (SAx1) 0 | Width[2:0] | Res | Coord[10:0]
0x0524 <-- (SSt1) 0 | Width[2:0] | Res | Coord[10:0]
0x03b4 <-- (SAx2) 0 | Width[2:0] | Res | Coord[10:0]
0x03cc <-- (SSt2) 0 | Width[2:0] | Res | Coord[10:0]
0x0248 <-- (SAx3) 0 | Width[2:0] | Res | Coord[10:0]
0x0248 <-- (SSt3) 0 | Width[2:0] | Res | Coord[10:0]
0x0bda <-- Res[3:0] | L | 0xb | 0xd | 0xa, word=0xbda64fa
0x64fa <-- Sector Number
0x0016 <-- Res[3:0] | TFNum[3:0] | Res | Tower[6:0], word=0x160fff
0x0fff <-- Res[3:0] | Layermap[11:0]
0x0000 <-- Res[7:0] | RoadID[23:16], word=0xd8
0x00d8 <-- RoadID[15:0]
0x3990 <-- Track chi2
0x8022 <-- Track d0
0x8304 <-- Track z0
0x8545 <-- Track coth
0x3703 <-- Track phi
0xabcc <-- Track curv
0x133b <-- (IBLa) 0 | ColWidth[2:0] | ColCoord[11:0]
0x15e1 <-- (IBLb) s | RowWidth[2:0] | RowCoord[11:0]
0x18c0 <-- (PL0a) 0 | ColWidth[2:0] | ColCoord[11:0]
0x2944 <-- (PL0b) s | RowWidth[2:0] | RowCoord[11:0]
0x10f0 <-- (PL1a) 0 | ColWidth[2:0] | ColCoord[11:0]
0x1180 <-- (PL1b) s | RowWidth[2:0] | RowCoord[11:0]
0x12c0 <-- (PL2a) 0 | ColWidth[2:0] | ColCoord[11:0]
0x23c2 <-- (PL2b) s | RowWidth[2:0] | RowCoord[11:0]
0x029e <-- (SAx0) 0 | Width[2:0] | Res | Coord[10:0]
0x0268 <-- (SSt0) 0 | Width[2:0] | Res | Coord[10:0]
0x0542 <-- (SAx1) 0 | Width[2:0] | Res | Coord[10:0]
0x0512 <-- (SSt1) 0 | Width[2:0] | Res | Coord[10:0]
0x0211 <-- (SAx2) 0 | Width[2:0] | Res | Coord[10:0]
0x0224 <-- (SSt2) 0 | Width[2:0] | Res | Coord[10:0]
0x047a <-- (SAx3) 0 | Width[2:0] | Res | Coord[10:0]
0x047c <-- (SSt3) 0 | Width[2:0] | Res | Coord[10:0]
0x0bda <-- Res[3:0] | L | 0xb | 0xd | 0xa, word=0xbda0101
0x0101 <-- Sector Number
0x0016 <-- Res[3:0] | TFNum[3:0] | Res | Tower[6:0], word=0x160fff
0x0fff <-- Res[3:0] | Layermap[11:0]
0x0000 <-- Res[7:0] | RoadID[23:16], word=0x6a
0x006a <-- RoadID[15:0]
0x3b5b <-- Track chi2
0x818f <-- Track d0
0x9d4b <-- Track z0
0x7e4b <-- Track coth
0x3d46 <-- Track phi
0x7873 <-- Track curv
0x34e8 <-- (IBLa) 0 | ColWidth[2:0] | ColCoord[11:0]
0x39f9 <-- (IBLb) s | RowWidth[2:0] | RowCoord[11:0]
0x25f1 <-- (PL0a) 0 | ColWidth[2:0] | ColCoord[11:0]
0x3597 <-- (PL0b) s | RowWidth[2:0] | RowCoord[11:0]
0x1560 <-- (PL1a) 0 | ColWidth[2:0] | ColCoord[11:0]
0x1260 <-- (PL1b) s | RowWidth[2:0] | RowCoord[11:0]
0x14b4 <-- (PL2a) 0 | ColWidth[2:0] | ColCoord[11:0]
0x1968 <-- (PL2b) s | RowWidth[2:0] | RowCoord[11:0]
0x0376 <-- (SAx0) 0 | Width[2:0] | Res | Coord[10:0]
0x0382 <-- (SSt0) 0 | Width[2:0] | Res | Coord[10:0]
0x028e <-- (SAx1) 0 | Width[2:0] | Res | Coord[10:0]
0x027a <-- (SSt1) 0 | Width[2:0] | Res | Coord[10:0]
0x01cc <-- (SAx2) 0 | Width[2:0] | Res | Coord[10:0]
0x01ea <-- (SSt2) 0 | Width[2:0] | Res | Coord[10:0]
0x00fc <-- (SAx3) 0 | Width[2:0] | Res | Coord[10:0]
0x00da <-- (SSt3) 0 | Width[2:0] | Res | Coord[10:0]
0x0bda <-- Res[3:0] | L | 0xb | 0xd | 0xa, word=0xbda0006
0x0006 <-- Sector Number
0x0016 <-- Res[3:0] | TFNum[3:0] | Res | Tower[6:0], word=0x160fff
0x0fff <-- Res[3:0] | Layermap[11:0]
0x0000 <-- Res[7:0] | RoadID[23:16], word=0x1a
0x001a <-- RoadID[15:0]
0x3a9a <-- Track chi2
0x7ebd <-- Track d0
0x9d30 <-- Track z0
0x7e8d <-- Track coth
0x3e1d <-- Track phi
0x7509 <-- Track curv
0x24fa <-- (IBLa) 0 | ColWidth[2:0] | ColCoord[11:0]
0x4046 <-- (IBLb) s | RowWidth[2:0] | RowCoord[11:0]
0x1610 <-- (PL0a) 0 | ColWidth[2:0] | ColCoord[11:0]
0x25dc <-- (PL0b) s | RowWidth[2:0] | RowCoord[11:0]
0x1580 <-- (PL1a) 0 | ColWidth[2:0] | ColCoord[11:0]
0x1328 <-- (PL1b) s | RowWidth[2:0] | RowCoord[11:0]
0x1510 <-- (PL2a) 0 | ColWidth[2:0] | ColCoord[11:0]
0x10d8 <-- (PL2b) s | RowWidth[2:0] | RowCoord[11:0]
0x0412 <-- (SAx0) 0 | Width[2:0] | Res | Coord[10:0]
0x041c <-- (SSt0) 0 | Width[2:0] | Res | Coord[10:0]
0x035e <-- (SAx1) 0 | Width[2:0] | Res | Coord[10:0]
0x034e <-- (SSt1) 0 | Width[2:0] | Res | Coord[10:0]
0x02d6 <-- (SAx2) 0 | Width[2:0] | Res | Coord[10:0]
0x02ec <-- (SSt2) 0 | Width[2:0] | Res | Coord[10:0]
0x0240 <-- (SAx3) 0 | Width[2:0] | Res | Coord[10:0]
0x0224 <-- (SSt3) 0 | Width[2:0] | Res | Coord[10:0]
0x0bda <-- Res[3:0] | L | 0xb | 0xd | 0xa, word=0xbda128e
0x128e <-- Sector Number
0x0016 <-- Res[3:0] | TFNum[3:0] | Res | Tower[6:0], word=0x160ffe
0x0ffe <-- Res[3:0] | Layermap[11:0]
0x0000 <-- Res[7:0] | RoadID[23:16], word=0x7
0x0007 <-- RoadID[15:0]
0x649b <-- Track chi2
0x7e8f <-- Track d0
0x9de8 <-- Track z0
0x870f <-- Track coth
0x3bdf <-- Track phi
0x4446 <-- Track curv
0x0000 <-- (IBLa) 0 | ColWidth[2:0] | ColCoord[11:0]
0x0000 <-- (IBLb) s | RowWidth[2:0] | RowCoord[11:0]
0x3102 <-- (PL0a) 0 | ColWidth[2:0] | ColCoord[11:0]
0x7457 <-- (PL0b) s | RowWidth[2:0] | RowCoord[11:0]
0x1384 <-- (PL1a) 0 | ColWidth[2:0] | ColCoord[11:0]
0x20dd <-- (PL1b) s | RowWidth[2:0] | RowCoord[11:0]
0x262c <-- (PL2a) 0 | ColWidth[2:0] | ColCoord[11:0]
0x27bb <-- (PL2b) s | RowWidth[2:0] | RowCoord[11:0]
0x03ec <-- (SAx0) 0 | Width[2:0] | Res | Coord[10:0]
0x03ce <-- (SSt0) 0 | Width[2:0] | Res | Coord[10:0]
0x03b8 <-- (SAx1) 0 | Width[2:0] | Res | Coord[10:0]
0x037c <-- (SSt1) 0 | Width[2:0] | Res | Coord[10:0]
0x03d4 <-- (SAx2) 0 | Width[2:0] | Res | Coord[10:0]
0x03ee <-- (SSt2) 0 | Width[2:0] | Res | Coord[10:0]
0x041a <-- (SAx3) 0 | Width[2:0] | Res | Coord[10:0]
0x041e <-- (SSt3) 0 | Width[2:0] | Res | Coord[10:0]
0xe0da <-- Begin trailer debug block
0x0000 <-- Length of debug block | Indeterminate[3:0]
0xe0df <-- End debug block
0x0000 <-- Length of debug block | Indeterminate[3:0]
0x0000 <-- L1ID[31:16]
0x0000 <-- L1ID[15:0]
0x0000 <-- ErrorFlag[31:16]
0x0001 <-- ErrorFlag[15:0]
0x0000 <-- Res
0x0000 <-- Res
0x0000 <-- Res
0x0000 <-- Res
0xe0f0 <-- stripped by FLI in CoreCrateRcvr machine
0xa5a5 <-- stripped by FLI in CoreCrateRcvr machine
0x5a5a <-- stripped by FLI in CoreCrateRcvr machine
0x0e0f <-- stripped by FLI in CoreCrateRcvr machine
