0xee12
0x34ee <-- Start of Header Marker
0x0000
0x0009 <-- Header size - fixed
0x0301
0x0000 <-- Format version number - formed within FLIC from firmware
0x0000
0x007f <-- Source identifier - fixed
0x0003
0x652e <-- 0 | RunNumber[30:0]
0x0008
0x6a5c <-- Extended level 1 ID
0x0000
0x06de <-- Res[31:12] | BCID[11:0]
0x0000
0x0000 <-- Res[31:8] | L1TriggerType[7:0]
0x0000
0x0000 <-- Res[31:24] | DetectorEventType[23:16] | Res[15:4] | TIM[3:0]
0x0bda
0x1d08 <-- Res[3:0] | L | 0xbda | sector
0x0016
0x0ffe <-- 
0x0000
0x0007 <-- RoadID[23:0]
0x159a
0x81a0 <-- Track chi2[31:16] | Track d0[15:0]
0x9359
0x8c89 <-- Track z0[31:16] | Track coth[15:0]
0x3d99
0xcd72 <-- Track phi0[31:16] | Track curv[15:0]
0x0000
0x016f <-- Res[31:12] | Module L0
0x0000
0x0000 <-- IBL
0x0000
0x028b <-- Res[31:12] | Module L1
0x1920
0x1540 <-- PL0b
0x0000
0x0446 <-- Res[31:12] | Module L2
0x1410
0x214d <-- PL1b
0x0000
0x06a9 <-- Res[31:12] | Module L3
0x18a0
0x16b0 <-- PL2b
0x00cd
0x09f1 <-- SAx0
0x00d2
0x09f0 <-- SSt0
0x043f
0x0d68 <-- SAx1
0x046b
0x0d69 <-- SSt1
0x016d
0x11bb <-- SAx2
0x0179
0x11ba <-- SSt2
0x043c
0x16b2 <-- SAx3
0x0462
0x16b3 <-- SSt3
0x0bda
0x0056 <-- Res[3:0] | L | 0xbda | sector
0x0016
0x0fff <-- 
0x0000
0x0001 <-- RoadID[23:0]
0x233c
0x7fc3 <-- Track chi2[31:16] | Track d0[15:0]
0x9c4e
0x7dae <-- Track z0[31:16] | Track coth[15:0]
0x3b12
0x46e8 <-- Track phi0[31:16] | Track curv[15:0]
0x0000
0x015b <-- Res[31:12] | Module L0
0x144d
0x2875 <-- IBL
0x0000
0x028b <-- Res[31:12] | Module L1
0x1550
0x23be <-- PL0b
0x0000
0x0438 <-- Res[31:12] | Module L2
0x1450
0x299c <-- PL1b
0x0000
0x06a8 <-- Res[31:12] | Module L3
0x139c
0x2653 <-- PL2b
0x035e
0x09ed <-- SAx0
0x037a
0x09ec <-- SSt0
0x02f6
0x0d7c <-- SAx1
0x02d0
0x0d7d <-- SSt1
0x02e6
0x11cd <-- SAx2
0x0316
0x11cc <-- SSt2
0x02fa
0x16dc <-- SAx3
0x02be
0x16dd <-- SSt3
0xe0da
0x0000 <-- E0DA (begin debug block) | Length of debug block | Indeterminate[3:0]
0xe0df
0x0000 <-- E0DF (end debug block)   | Length of debug block | Indeterminate[3:0]
0x0000
0x0000 <-- L1ID
0x0000
0x0001 <-- ErrorFlag
0x0000
0x0000 <-- Res
0x0000
0x0000 <-- Res
