0xb0f0 <-- stripped by FLIC in CoreCrate machine
0xcaf0 <-- stripped by FLIC in CoreCrate machine, Bits[3:0] are indeterminate
0xff12 <-- stripped by FLIC in CoreCrate machine
0x34ff <-- stripped by FLIC in CoreCrate machine
0x0003 <-- 0 | RunNumber[30:16], RunNumber=0x3652e
0x652e <-- RunNumber[15:0], RunNumber=0x3652e
0x0008 <-- ExtendedLevel1ID[31:16], word=0x86a16
0x6a16 <-- ExtendedLevel1ID[15:0], word=0x86a16
0x0000 <-- Res
0x08f2 <-- Res[3:0] | BCID[11:0], word=0x8f2
0x0000 <-- Res
0x0000 <-- Res[7:0] | L1TriggerType[7:0], word=0x0
0x0000 <-- Res[7:0] | DetectorEventType[7:0]
0x0000 <-- Res[11:0] | TIM[3:0]
0x0bda <-- Res[3:0] | L | 0xb | 0xd | 0xa, word=0xbda1e0e
0x1e0e <-- Sector Number
0x0016 <-- Res[3:0] | TFNum[3:0] | Res | Tower[6:0], word=0x160dff
0x0dff <-- Res[3:0] | Layermap[11:0]
0x0000 <-- Res[7:0] | RoadID[23:16], word=0x8f
0x008f <-- RoadID[15:0]
0x12c5 <-- Track chi2
0x7fb3 <-- Track d0
0x6db4 <-- Track z0
0x90aa <-- Track coth
0x34e4 <-- Track phi
0x91ca <-- Track curv
0x24ef <-- (IBLa) 0 | ColWidth[2:0] | ColCoord[11:0]
0x24b5 <-- (IBLb) s | RowWidth[2:0] | RowCoord[11:0]
0x15fc <-- (PL0a) 0 | ColWidth[2:0] | ColCoord[11:0]
0x2765 <-- (PL0b) s | RowWidth[2:0] | RowCoord[11:0]
0x22e2 <-- (PL1a) 0 | ColWidth[2:0] | ColCoord[11:0]
0x286a <-- (PL1b) s | RowWidth[2:0] | RowCoord[11:0]
0x18a0 <-- (PL2a) 0 | ColWidth[2:0] | ColCoord[11:0]
0x2a1b <-- (PL2b) s | RowWidth[2:0] | RowCoord[11:0]
0x01f1 <-- (SAx0) 0 | Width[2:0] | Res | Coord[10:0]
0x020c <-- (SSt0) 0 | Width[2:0] | Res | Coord[10:0]
0x04c4 <-- (SAx1) 0 | Width[2:0] | Res | Coord[10:0]
0x04ec <-- (SSt1) 0 | Width[2:0] | Res | Coord[10:0]
0x01c6 <-- (SAx2) 0 | Width[2:0] | Res | Coord[10:0]
0x0000 <-- (SSt2) 0 | Width[2:0] | Res | Coord[10:0]
0x0489 <-- (SAx3) 0 | Width[2:0] | Res | Coord[10:0]
0x0458 <-- (SSt3) 0 | Width[2:0] | Res | Coord[10:0]
0x0bda <-- Res[3:0] | L | 0xb | 0xd | 0xa, word=0xbda0d18
0x0d18 <-- Sector Number
0x0016 <-- Res[3:0] | TFNum[3:0] | Res | Tower[6:0], word=0x160fff
0x0fff <-- Res[3:0] | Layermap[11:0]
0x0000 <-- Res[7:0] | RoadID[23:16], word=0x4d
0x004d <-- RoadID[15:0]
0x1c30 <-- Track chi2
0x8022 <-- Track d0
0x5d3a <-- Track z0
0x8642 <-- Track coth
0x392c <-- Track phi
0xcd33 <-- Track curv
0x1177 <-- (IBLa) 0 | ColWidth[2:0] | ColCoord[11:0]
0x1701 <-- (IBLb) s | RowWidth[2:0] | RowCoord[11:0]
0x1384 <-- (PL0a) 0 | ColWidth[2:0] | ColCoord[11:0]
0x1170 <-- (PL0b) s | RowWidth[2:0] | RowCoord[11:0]
0x15fc <-- (PL1a) 0 | ColWidth[2:0] | ColCoord[11:0]
0x13f8 <-- (PL1b) s | RowWidth[2:0] | RowCoord[11:0]
0x1844 <-- (PL2a) 0 | ColWidth[2:0] | ColCoord[11:0]
0x2714 <-- (PL2b) s | RowWidth[2:0] | RowCoord[11:0]
0x032c <-- (SAx0) 0 | Width[2:0] | Res | Coord[10:0]
0x0343 <-- (SSt0) 0 | Width[2:0] | Res | Coord[10:0]
0x05ab <-- (SAx1) 0 | Width[2:0] | Res | Coord[10:0]
0x05ac <-- (SSt1) 0 | Width[2:0] | Res | Coord[10:0]
0x0224 <-- (SAx2) 0 | Width[2:0] | Res | Coord[10:0]
0x01ff <-- (SSt2) 0 | Width[2:0] | Res | Coord[10:0]
0x040f <-- (SAx3) 0 | Width[2:0] | Res | Coord[10:0]
0x044d <-- (SSt3) 0 | Width[2:0] | Res | Coord[10:0]
0x0bda <-- Res[3:0] | L | 0xb | 0xd | 0xa, word=0xbda32bf
0x32bf <-- Sector Number
0x0016 <-- Res[3:0] | TFNum[3:0] | Res | Tower[6:0], word=0x160fff
0x0fff <-- Res[3:0] | Layermap[11:0]
0x0000 <-- Res[7:0] | RoadID[23:16], word=0x25
0x0025 <-- RoadID[15:0]
0x0ac2 <-- Track chi2
0x800f <-- Track d0
0x6db3 <-- Track z0
0x9029 <-- Track coth
0x350b <-- Track phi
0x8a7e <-- Track curv
0x24c9 <-- (IBLa) 0 | ColWidth[2:0] | ColCoord[11:0]
0x14e1 <-- (IBLb) s | RowWidth[2:0] | RowCoord[11:0]
0x15c0 <-- (PL0a) 0 | ColWidth[2:0] | ColCoord[11:0]
0x27ad <-- (PL0b) s | RowWidth[2:0] | RowCoord[11:0]
0x1280 <-- (PL1a) 0 | ColWidth[2:0] | ColCoord[11:0]
0x28ec <-- (PL1b) s | RowWidth[2:0] | RowCoord[11:0]
0x273a <-- (PL2a) 0 | ColWidth[2:0] | ColCoord[11:0]
0x1100 <-- (PL2b) s | RowWidth[2:0] | RowCoord[11:0]
0x0257 <-- (SAx0) 0 | Width[2:0] | Res | Coord[10:0]
0x027c <-- (SSt0) 0 | Width[2:0] | Res | Coord[10:0]
0x054f <-- (SAx1) 0 | Width[2:0] | Res | Coord[10:0]
0x056c <-- (SSt1) 0 | Width[2:0] | Res | Coord[10:0]
0x028b <-- (SAx2) 0 | Width[2:0] | Res | Coord[10:0]
0x0294 <-- (SSt2) 0 | Width[2:0] | Res | Coord[10:0]
0x0572 <-- (SAx3) 0 | Width[2:0] | Res | Coord[10:0]
0x05aa <-- (SSt3) 0 | Width[2:0] | Res | Coord[10:0]
0x0bda <-- Res[3:0] | L | 0xb | 0xd | 0xa, word=0xbda5d8a
0x5d8a <-- Sector Number
0x0016 <-- Res[3:0] | TFNum[3:0] | Res | Tower[6:0], word=0x160fff
0x0fff <-- Res[3:0] | Layermap[11:0]
0x0000 <-- Res[7:0] | RoadID[23:16], word=0x3
0x0003 <-- RoadID[15:0]
0x15f4 <-- Track chi2
0x7ff5 <-- Track d0
0x6daf <-- Track z0
0x9093 <-- Track coth
0x36e2 <-- Track phi
0x6acf <-- Track curv
0x24fb <-- (IBLa) 0 | ColWidth[2:0] | ColCoord[11:0]
0x25f6 <-- (IBLb) s | RowWidth[2:0] | RowCoord[11:0]
0x2555 <-- (PL0a) 0 | ColWidth[2:0] | ColCoord[11:0]
0x1018 <-- (PL0b) s | RowWidth[2:0] | RowCoord[11:0]
0x2245 <-- (PL1a) 0 | ColWidth[2:0] | ColCoord[11:0]
0x1288 <-- (PL1b) s | RowWidth[2:0] | RowCoord[11:0]
0x2817 <-- (PL2a) 0 | ColWidth[2:0] | ColCoord[11:0]
0x25f4 <-- (PL2b) s | RowWidth[2:0] | RowCoord[11:0]
0x04cc <-- (SAx0) 0 | Width[2:0] | Res | Coord[10:0]
0x04f0 <-- (SSt0) 0 | Width[2:0] | Res | Coord[10:0]
0x02f2 <-- (SAx1) 0 | Width[2:0] | Res | Coord[10:0]
0x031e <-- (SSt1) 0 | Width[2:0] | Res | Coord[10:0]
0x013c <-- (SAx2) 0 | Width[2:0] | Res | Coord[10:0]
0x0138 <-- (SSt2) 0 | Width[2:0] | Res | Coord[10:0]
0x0556 <-- (SAx3) 0 | Width[2:0] | Res | Coord[10:0]
0x051e <-- (SSt3) 0 | Width[2:0] | Res | Coord[10:0]
0xe0da <-- Begin trailer debug block
0x0000 <-- Length of debug block | Indeterminate[3:0]
0xe0df <-- End debug block
0x0000 <-- Length of debug block | Indeterminate[3:0]
0x0000 <-- L1ID[31:16]
0x0000 <-- L1ID[15:0]
0x0000 <-- ErrorFlag[31:16]
0x0001 <-- ErrorFlag[15:0]
0x0000 <-- Res
0x0000 <-- Res
0x0000 <-- Res
0x0000 <-- Res
0xe0f0 <-- stripped by FLI in CoreCrateRcvr machine
0xa5a5 <-- stripped by FLI in CoreCrateRcvr machine
0x5a5a <-- stripped by FLI in CoreCrateRcvr machine
0x0e0f <-- stripped by FLI in CoreCrateRcvr machine
