0xee12
0x34ee <-- Start of Header Marker
0x0000
0x0009 <-- Header size - fixed
0x0301
0x0000 <-- Format version number - formed within FLIC from firmware
0x0000
0x007f <-- Source identifier - fixed
0x0003
0x652e <-- 0 | RunNumber[30:0]
0x0008
0x4db1 <-- Extended level 1 ID
0x0000
0x03c3 <-- Res[31:12] | BCID[11:0]
0x0000
0x0000 <-- Res[31:8] | L1TriggerType[7:0]
0x0000
0x0000 <-- Res[31:24] | DetectorEventType[23:16] | Res[15:4] | TIM[3:0]
0x0bda
0x02c8 <-- Res[3:0] | L | 0xbda | sector
0x0016
0x0fdb <-- 
0x0000
0x001b <-- RoadID[23:0]
0x24b2
0x7ff1 <-- Track chi2[31:16] | Track d0[15:0]
0x7723
0x81c0 <-- Track z0[31:16] | Track coth[15:0]
0x2ad2
0x9ddd <-- Track phi0[31:16] | Track curv[15:0]
0x0000
0x0145 <-- Res[31:12] | Module L0
0x13d5
0x1901 <-- IBL
0x0000
0x0270 <-- Res[31:12] | Module L1
0x1220
0x285d <-- PL0b
0x0000
0x041d <-- Res[31:12] | Module L2
0x0000
0x0000 <-- PL1b
0x0000
0x0673 <-- Res[31:12] | Module L3
0x1360
0x1860 <-- PL2b
0x0590
0x09a5 <-- SAx0
0x0000
0x09a4 <-- SSt0
0x006a
0x0d34 <-- SAx1
0x004a
0x0d35 <-- SSt1
0x0123
0x116d <-- SAx2
0x013d
0x116c <-- SSt2
0x01a2
0x1664 <-- SAx3
0x0190
0x1665 <-- SSt3
0x0bda
0x02be <-- Res[3:0] | L | 0xbda | sector
0x0016
0x07f7 <-- 
0x0000
0x0018 <-- RoadID[23:0]
0x3615
0x8106 <-- Track chi2[31:16] | Track d0[15:0]
0x6844
0x83c4 <-- Track z0[31:16] | Track coth[15:0]
0x2f27
0xb462 <-- Track phi0[31:16] | Track curv[15:0]
0x0000
0x0158 <-- Res[31:12] | Module L0
0x14f7
0x11d1 <-- IBL
0x0000
0x027c <-- Res[31:12] | Module L1
0x26c4
0x52af <-- PL0b
0x0000
0x041c <-- Res[31:12] | Module L2
0x185c
0x293b <-- PL1b
0x0000
0x067f <-- Res[31:12] | Module L3
0x0000
0x0000 <-- PL2b
0x025e
0x09bd <-- SAx0
0x0287
0x09bc <-- SSt0
0x037e
0x0d34 <-- SAx1
0x0364
0x0d35 <-- SSt1
0x047c
0x116d <-- SAx2
0x0484
0x116c <-- SSt2
0x052a
0x1664 <-- SAx3
0x0000
0x1665 <-- SSt3
0x0bda
0x579d <-- Res[3:0] | L | 0xbda | sector
0x0016
0x0fff <-- 
0x0000
0x0007 <-- RoadID[23:0]
0x2535
0x801f <-- Track chi2[31:16] | Track d0[15:0]
0x7721
0x91bf <-- Track z0[31:16] | Track coth[15:0]
0x3715
0xaeae <-- Track phi0[31:16] | Track curv[15:0]
0x0000
0x015a <-- Res[31:12] | Module L0
0x22a9
0x15e9 <-- IBL
0x0000
0x027e <-- Res[31:12] | Module L1
0x211c
0x29a5 <-- PL0b
0x0000
0x0438 <-- Res[31:12] | Module L2
0x16e0
0x1178 <-- PL1b
0x0000
0x069c <-- Res[31:12] | Module L3
0x2392
0x43f4 <-- PL2b
0x02a8
0x09d9 <-- SAx0
0x0296
0x09d8 <-- SSt0
0x054a
0x0d52 <-- SAx1
0x052e
0x0d53 <-- SSt1
0x0219
0x11a3 <-- SAx2
0x01d9
0x11a2 <-- SSt2
0x048c
0x169c <-- SAx3
0x049a
0x169d <-- SSt3
0x0bda
0x9206 <-- Res[3:0] | L | 0xbda | sector
0x0016
0x0fff <-- 
0x0000
0x0004 <-- RoadID[23:0]
0x1575
0x7ff8 <-- Track chi2[31:16] | Track d0[15:0]
0x8c51
0x8602 <-- Track z0[31:16] | Track coth[15:0]
0x4161
0x37e0 <-- Track phi0[31:16] | Track curv[15:0]
0x0000
0x016f <-- Res[31:12] | Module L0
0x20aa
0x1251 <-- IBL
0x0000
0x028b <-- Res[31:12] | Module L1
0x1340
0x299d <-- PL0b
0x0000
0x0445 <-- Res[31:12] | Module L2
0x2585
0x39a9 <-- PL1b
0x0000
0x06c2 <-- Res[31:12] | Module L3
0x1740
0x204c <-- PL2b
0x02ce
0x0a07 <-- SAx0
0x02f0
0x0a06 <-- SSt0
0x03e8
0x0d96 <-- SAx1
0x03e0
0x0d97 <-- SSt1
0x055e
0x11e7 <-- SAx2
0x054c
0x11e6 <-- SSt2
0x016e
0x170e <-- SAx3
0x01a0
0x170f <-- SSt3
0xe0da
0x0000 <-- E0DA (begin debug block) | Length of debug block | Indeterminate[3:0]
0xe0df
0x0000 <-- E0DF (end debug block)   | Length of debug block | Indeterminate[3:0]
0x0000
0x0000 <-- L1ID
0x0000
0x0001 <-- ErrorFlag
0x0000
0x0000 <-- Res
0x0000
0x0000 <-- Res
