0xee12
0x34ee <-- Start of Header Marker
0x0000
0x0009 <-- Header size - fixed
0x0301
0x0000 <-- Format version number - formed within FLIC from firmware
0x0000
0x007f <-- Source identifier - fixed
0x0003
0x652e <-- 0 | RunNumber[30:0]
0x0008
0x6753 <-- Extended level 1 ID
0x0000
0x0582 <-- Res[31:12] | BCID[11:0]
0x0000
0x0000 <-- Res[31:8] | L1TriggerType[7:0]
0x0000
0x0000 <-- Res[31:24] | DetectorEventType[23:16] | Res[15:4] | TIM[3:0]
0x0bda
0x2af6 <-- Res[3:0] | L | 0xbda | sector
0x0016
0x0ff6 <-- 
0x0000
0x001e <-- RoadID[23:0]
0x202c
0x7fc9 <-- Track chi2[31:16] | Track d0[15:0]
0x7709
0x8613 <-- Track z0[31:16] | Track coth[15:0]
0x3d4d
0xce1e <-- Track phi0[31:16] | Track curv[15:0]
0x0000
0x0159 <-- Res[31:12] | Module L0
0x0000
0x0000 <-- IBL
0x0000
0x028a <-- Res[31:12] | Module L1
0x1430
0x24ac <-- PL0b
0x0000
0x0444 <-- Res[31:12] | Module L2
0x1660
0x1070 <-- PL1b
0x0000
0x06a7 <-- Res[31:12] | Module L3
0x0000
0x0000 <-- PL2b
0x006a
0x09ed <-- SAx0
0x003e
0x09ec <-- SSt0
0x03d6
0x0d64 <-- SAx1
0x0418
0x0d65 <-- SSt1
0x00f6
0x11b7 <-- SAx2
0x010c
0x11b6 <-- SSt2
0x03b4
0x16ae <-- SAx3
0x03b6
0x16af <-- SSt3
0x0bda
0x9c92 <-- Res[3:0] | L | 0xbda | sector
0x0016
0x0fff <-- 
0x0000
0x0003 <-- RoadID[23:0]
0x24b0
0x7ffe <-- Track chi2[31:16] | Track d0[15:0]
0x8205
0x8539 <-- Track z0[31:16] | Track coth[15:0]
0x41cf
0x91be <-- Track phi0[31:16] | Track curv[15:0]
0x0000
0x016e <-- Res[31:12] | Module L0
0x22c7
0x1251 <-- IBL
0x0000
0x028a <-- Res[31:12] | Module L1
0x1844
0x291b <-- PL0b
0x0000
0x0445 <-- Res[31:12] | Module L2
0x10b0
0x1898 <-- PL1b
0x0000
0x06b5 <-- Res[31:12] | Module L3
0x126c
0x27bd <-- PL2b
0x0012
0x0a05 <-- SAx0
0x05be
0x09ec <-- SSt0
0x055c
0x0d7e <-- SAx1
0x0528
0x0d7f <-- SSt1
0x04de
0x11cf <-- SAx2
0x04f8
0x11ce <-- SSt2
0x0436
0x16de <-- SAx3
0x0434
0x16df <-- SSt3
0x0bda
0x0cb4 <-- Res[3:0] | L | 0xbda | sector
0x0016
0x0fff <-- 
0x0000
0x0000 <-- RoadID[23:0]
0x4a8b
0x7f72 <-- Track chi2[31:16] | Track d0[15:0]
0x821a
0x88c0 <-- Track z0[31:16] | Track coth[15:0]
0x4028
0x39aa <-- Track phi0[31:16] | Track curv[15:0]
0x0000
0x016e <-- Res[31:12] | Module L0
0x23f0
0x1199 <-- IBL
0x0000
0x028b <-- Res[31:12] | Module L1
0x1090
0x286c <-- PL0b
0x0000
0x0445 <-- Res[31:12] | Module L2
0x23d3
0x27bc <-- PL1b
0x0000
0x06b5 <-- Res[31:12] | Module L3
0x16d0
0x17a8 <-- PL2b
0x01f0
0x0a07 <-- SAx0
0x01f6
0x0a06 <-- SSt0
0x02ca
0x0d96 <-- SAx1
0x02ea
0x0d97 <-- SSt1
0x0402
0x11e9 <-- SAx2
0x0438
0x11e8 <-- SSt2
0x0562
0x16f8 <-- SAx3
0x0550
0x16f9 <-- SSt3
0xe0da
0x0000 <-- E0DA (begin debug block) | Length of debug block | Indeterminate[3:0]
0xe0df
0x0000 <-- E0DF (end debug block)   | Length of debug block | Indeterminate[3:0]
0x0000
0x0000 <-- L1ID
0x0000
0x0001 <-- ErrorFlag
0x0000
0x0000 <-- Res
0x0000
0x0000 <-- Res
