0xee12
0x34ee <-- Start of Header Marker
0x0000
0x0009 <-- Header size - fixed
0x0301
0x0000 <-- Format version number - formed within FLIC from firmware
0x0000
0x007f <-- Source identifier - fixed
0x0003
0x652e <-- 0 | RunNumber[30:0]
0x0008
0x69f4 <-- Extended level 1 ID
0x0000
0x0250 <-- Res[31:12] | BCID[11:0]
0x0000
0x0000 <-- Res[31:8] | L1TriggerType[7:0]
0x0000
0x0000 <-- Res[31:24] | DetectorEventType[23:16] | Res[15:4] | TIM[3:0]
0x0bda
0x21ec <-- Res[3:0] | L | 0xbda | sector
0x0016
0x0ffe <-- 
0x0000
0x000b <-- RoadID[23:0]
0x1e60
0x7fc9 <-- Track chi2[31:16] | Track d0[15:0]
0x91ca
0x8f6e <-- Track z0[31:16] | Track coth[15:0]
0x27d5
0x5285 <-- Track phi0[31:16] | Track curv[15:0]
0x0000
0x0148 <-- Res[31:12] | Module L0
0x0000
0x0000 <-- IBL
0x0000
0x0272 <-- Res[31:12] | Module L1
0x208c
0x2675 <-- PL0b
0x0000
0x0412 <-- Res[31:12] | Module L2
0x2697
0x297a <-- PL1b
0x0000
0x0676 <-- Res[31:12] | Module L3
0x11e0
0x252c <-- PL2b
0x05c6
0x09a9 <-- SAx0
0x05a6
0x09a8 <-- SSt0
0x0188
0x0d3a <-- SAx1
0x017e
0x0d3b <-- SSt1
0x0358
0x1173 <-- SAx2
0x0320
0x1172 <-- SSt2
0x053a
0x166c <-- SAx3
0x0536
0x166d <-- SSt3
0x0bda
0x23c2 <-- Res[3:0] | L | 0xbda | sector
0x0016
0x0fff <-- 
0x0000
0x0003 <-- RoadID[23:0]
0x419f
0x7ff6 <-- Track chi2[31:16] | Track d0[15:0]
0x91b2
0x916d <-- Track z0[31:16] | Track coth[15:0]
0x3084
0x3c6c <-- Track phi0[31:16] | Track curv[15:0]
0x0000
0x015c <-- Res[31:12] | Module L0
0x100a
0x12a9 <-- IBL
0x0000
0x027f <-- Res[31:12] | Module L1
0x2154
0x1478 <-- PL0b
0x0000
0x042c <-- Res[31:12] | Module L2
0x27ca
0x2384 <-- PL1b
0x0000
0x0690 <-- Res[31:12] | Module L3
0x1440
0x24a6 <-- PL2b
0x01a7
0x09db <-- SAx0
0x01d0
0x09da <-- SSt0
0x053c
0x0d52 <-- SAx1
0x0559
0x0d53 <-- SSt1
0x037a
0x11a5 <-- SAx2
0x0382
0x11a4 <-- SSt2
0x01ea
0x16b6 <-- SAx3
0x01b8
0x16b7 <-- SSt3
0xe0da
0x0000 <-- E0DA (begin debug block) | Length of debug block | Indeterminate[3:0]
0xe0df
0x0000 <-- E0DF (end debug block)   | Length of debug block | Indeterminate[3:0]
0x0000
0x0000 <-- L1ID
0x0000
0x0001 <-- ErrorFlag
0x0000
0x0000 <-- Res
0x0000
0x0000 <-- Res
