0xee12
0x34ee <-- Start of Header Marker
0x0000
0x0009 <-- Header size - fixed
0x0301
0x0000 <-- Format version number - formed within FLIC from firmware
0x0000
0x007f <-- Source identifier - fixed
0x0003
0x652e <-- 0 | RunNumber[30:0]
0x0008
0x4dbf <-- Extended level 1 ID
0x0000
0x0698 <-- Res[31:12] | BCID[11:0]
0x0000
0x0000 <-- Res[31:8] | L1TriggerType[7:0]
0x0000
0x0000 <-- Res[31:24] | DetectorEventType[23:16] | Res[15:4] | TIM[3:0]
0x0bda
0x425c <-- Res[3:0] | L | 0xbda | sector
0x0016
0x0ff7 <-- 
0x0000
0x00ce <-- RoadID[23:0]
0x10f8
0x8036 <-- Track chi2[31:16] | Track d0[15:0]
0x8a93
0x7fe4 <-- Track z0[31:16] | Track coth[15:0]
0x32e2
0xb98f <-- Track phi0[31:16] | Track curv[15:0]
0x0000
0x015a <-- Res[31:12] | Module L0
0x1475
0x13a1 <-- IBL
0x0000
0x027d <-- Res[31:12] | Module L1
0x18f0
0x2583 <-- PL0b
0x0000
0x042a <-- Res[31:12] | Module L2
0x18e0
0x1488 <-- PL1b
0x0000
0x068e <-- Res[31:12] | Module L3
0x0000
0x0000 <-- PL2b
0x04e2
0x09bd <-- SAx0
0x0500
0x09bc <-- SSt0
0x00ae
0x0d4c <-- SAx1
0x0094
0x0d4d <-- SSt1
0x024a
0x1185 <-- SAx2
0x0266
0x1184 <-- SSt2
0x0384
0x167c <-- SAx3
0x0367
0x167d <-- SSt3
0x0bda
0x0edd <-- Res[3:0] | L | 0xbda | sector
0x0016
0x0ffc <-- 
0x0000
0x00c3 <-- RoadID[23:0]
0x0ac7
0x8081 <-- Track chi2[31:16] | Track d0[15:0]
0x7d15
0x80e2 <-- Track z0[31:16] | Track coth[15:0]
0x361d
0xdae1 <-- Track phi0[31:16] | Track curv[15:0]
0x0000
0x015a <-- Res[31:12] | Module L0
0x0000
0x0000 <-- IBL
0x0000
0x027d <-- Res[31:12] | Module L1
0x0000
0x0000 <-- PL0b
0x0000
0x042a <-- Res[31:12] | Module L2
0x1460
0x28c2 <-- PL1b
0x0000
0x068d <-- Res[31:12] | Module L3
0x14b4
0x29fb <-- PL2b
0x0057
0x09d5 <-- SAx0
0x0080
0x09d4 <-- SSt0
0x0220
0x0d4c <-- SAx1
0x01fa
0x0d4d <-- SSt1
0x0399
0x1185 <-- SAx2
0x03bc
0x1184 <-- SSt2
0x0490
0x167c <-- SAx3
0x0471
0x167d <-- SSt3
0x0bda
0x545a <-- Res[3:0] | L | 0xbda | sector
0x0016
0x0fcf <-- 
0x0000
0x004d <-- RoadID[23:0]
0x2e5e
0x802d <-- Track chi2[31:16] | Track d0[15:0]
0x6f01
0x8ed5 <-- Track z0[31:16] | Track coth[15:0]
0x34ce
0x56fc <-- Track phi0[31:16] | Track curv[15:0]
0x0000
0x0159 <-- Res[31:12] | Module L0
0x24de
0x14e9 <-- IBL
0x0000
0x027d <-- Res[31:12] | Module L1
0x15a0
0x27db <-- PL0b
0x0000
0x042b <-- Res[31:12] | Module L2
0x21e7
0x29b4 <-- PL1b
0x0000
0x069b <-- Res[31:12] | Module L3
0x1640
0x1268 <-- PL2b
0x0000
0x09d9 <-- SAx0
0x0000
0x09d8 <-- SSt0
0x0202
0x0d68 <-- SAx1
0x020c
0x0d69 <-- SSt1
0x0058
0x11bb <-- SAx2
0x007f
0x11ba <-- SSt2
0x048a
0x16b2 <-- SAx3
0x049c
0x16b3 <-- SSt3
0x0bda
0x02e5 <-- Res[3:0] | L | 0xbda | sector
0x0016
0x0ffe <-- 
0x0000
0x0042 <-- RoadID[23:0]
0x29bc
0x7ffe <-- Track chi2[31:16] | Track d0[15:0]
0x8ab6
0x854b <-- Track z0[31:16] | Track coth[15:0]
0x2d30
0x9256 <-- Track phi0[31:16] | Track curv[15:0]
0x0000
0x015b <-- Res[31:12] | Module L0
0x0000
0x0000 <-- IBL
0x0000
0x027e <-- Res[31:12] | Module L1
0x21fd
0x212d <-- PL0b
0x0000
0x041e <-- Res[31:12] | Module L2
0x1420
0x1690 <-- PL1b
0x0000
0x0681 <-- Res[31:12] | Module L3
0x25dd
0x4405 <-- PL2b
0x01dd
0x09bf <-- SAx0
0x020e
0x09be <-- SSt0
0x0344
0x0d36 <-- SAx1
0x032a
0x0d37 <-- SSt1
0x04aa
0x116f <-- SAx2
0x04ac
0x116e <-- SSt2
0x05e2
0x1666 <-- SAx3
0x05f7
0x1667 <-- SSt3
0x0bda
0x1461 <-- Res[3:0] | L | 0xbda | sector
0x0016
0x0bff <-- 
0x0000
0x002a <-- RoadID[23:0]
0x0ad5
0x8011 <-- Track chi2[31:16] | Track d0[15:0]
0x8fdb
0x8599 <-- Track z0[31:16] | Track coth[15:0]
0x2fc5
0x36d5 <-- Track phi0[31:16] | Track curv[15:0]
0x0000
0x015b <-- Res[31:12] | Module L0
0x11ef
0x224c <-- IBL
0x0000
0x027e <-- Res[31:12] | Module L1
0x1440
0x13d0 <-- PL0b
0x0000
0x042b <-- Res[31:12] | Module L2
0x1650
0x1278 <-- PL1b
0x0000
0x068e <-- Res[31:12] | Module L3
0x2839
0x22ea <-- PL2b
0x012a
0x09d7 <-- SAx0
0x0148
0x09d6 <-- SSt0
0x04b8
0x0d4e <-- SAx1
0x04ae
0x0d4f <-- SSt1
0x02f2
0x119f <-- SAx2
0x02e0
0x119e <-- SSt2
0x0000
0x16b0 <-- SAx3
0x011d
0x16b1 <-- SSt3
0x0bda
0x244d <-- Res[3:0] | L | 0xbda | sector
0x0016
0x0fff <-- 
0x0000
0x0017 <-- RoadID[23:0]
0x2576
0x7ffb <-- Track chi2[31:16] | Track d0[15:0]
0x8ab3
0x89f6 <-- Track z0[31:16] | Track coth[15:0]
0x37ca
0xa2b4 <-- Track phi0[31:16] | Track curv[15:0]
0x0000
0x015b <-- Res[31:12] | Module L0
0x216b
0x1651 <-- IBL
0x0000
0x028b <-- Res[31:12] | Module L1
0x243a
0x1098 <-- PL0b
0x0000
0x0438 <-- Res[31:12] | Module L2
0x1810
0x12a8 <-- PL1b
0x0000
0x069c <-- Res[31:12] | Module L3
0x2203
0x15d8 <-- PL2b
0x0392
0x09d7 <-- SAx0
0x0369
0x09d6 <-- SSt0
0x00d5
0x0d68 <-- SAx1
0x00b4
0x0d69 <-- SSt1
0x03ea
0x11a1 <-- SAx2
0x03e2
0x11a0 <-- SSt2
0x00e2
0x16b0 <-- SAx3
0x011d
0x16b1 <-- SSt3
0x0bda
0x0a82 <-- Res[3:0] | L | 0xbda | sector
0x0016
0x0fff <-- 
0x0000
0x0001 <-- RoadID[23:0]
0x1f57
0x8083 <-- Track chi2[31:16] | Track d0[15:0]
0x8a9e
0x8c13 <-- Track z0[31:16] | Track coth[15:0]
0x3042
0x34c3 <-- Track phi0[31:16] | Track curv[15:0]
0x0000
0x015b <-- Res[31:12] | Module L0
0x21f4
0x12a1 <-- IBL
0x0000
0x027e <-- Res[31:12] | Module L1
0x2563
0x1448 <-- PL0b
0x0000
0x042c <-- Res[31:12] | Module L2
0x1060
0x2384 <-- PL1b
0x0000
0x068f <-- Res[31:12] | Module L3
0x1480
0x245a <-- PL2b
0x01b4
0x09d9 <-- SAx0
0x01de
0x09d8 <-- SSt0
0x055a
0x0d50 <-- SAx1
0x055e
0x0d51 <-- SSt1
0x03b8
0x11a3 <-- SAx2
0x03f2
0x11a2 <-- SSt2
0x0256
0x16b2 <-- SAx3
0x0254
0x16b3 <-- SSt3
0xe0da
0x0000 <-- E0DA (begin debug block) | Length of debug block | Indeterminate[3:0]
0xe0df
0x0000 <-- E0DF (end debug block)   | Length of debug block | Indeterminate[3:0]
0x0000
0x0000 <-- L1ID
0x0000
0x0001 <-- ErrorFlag
0x0000
0x0000 <-- Res
0x0000
0x0000 <-- Res
