0xee12
0x34ee <-- Start of Header Marker
0x0000
0x0009 <-- Header size - fixed
0x0301
0x0000 <-- Format version number - formed within FLIC from firmware
0x0000
0x007f <-- Source identifier - fixed
0x0003
0x652e <-- 0 | RunNumber[30:0]
0x0008
0x4d90 <-- Extended level 1 ID
0x0000
0x021e <-- Res[31:12] | BCID[11:0]
0x0000
0x0000 <-- Res[31:8] | L1TriggerType[7:0]
0x0000
0x0000 <-- Res[31:24] | DetectorEventType[23:16] | Res[15:4] | TIM[3:0]
0xe0da
0x0000 <-- E0DA (begin debug block) | Length of debug block | Indeterminate[3:0]
0xe0df
0x0000 <-- E0DF (end debug block)   | Length of debug block | Indeterminate[3:0]
0x0000
0x0000 <-- L1ID
0x0000
0x0001 <-- ErrorFlag
0x0000
0x0000 <-- Res
0x0000
0x0000 <-- Res
