0xb0f0 <-- stripped by FLIC in CoreCrate machine
0xcaf0 <-- stripped by FLIC in CoreCrate machine, Bits[3:0] are indeterminate
0xff12 <-- stripped by FLIC in CoreCrate machine
0x34ff <-- stripped by FLIC in CoreCrate machine
0x0003 <-- 0 | RunNumber[30:16], RunNumber=0x3652e
0x652e <-- RunNumber[15:0], RunNumber=0x3652e
0x0008 <-- ExtendedLevel1ID[31:16], word=0x84d69
0x4d69 <-- ExtendedLevel1ID[15:0], word=0x84d69
0x0000 <-- Res
0x08bc <-- Res[3:0] | BCID[11:0], word=0x8bc
0x0000 <-- Res
0x0000 <-- Res[7:0] | L1TriggerType[7:0], word=0x0
0x0000 <-- Res[7:0] | DetectorEventType[7:0]
0x0000 <-- Res[11:0] | TIM[3:0]
0x0bda <-- Res[3:0] | L | 0xb | 0xd | 0xa, word=0xbda7339
0x7339 <-- Sector Number
0x0016 <-- Res[3:0] | TFNum[3:0] | Res | Tower[6:0], word=0x160dff
0x0dff <-- Res[3:0] | Layermap[11:0]
0x0000 <-- Res[7:0] | RoadID[23:16], word=0x24
0x0024 <-- RoadID[15:0]
0x1d77 <-- Track chi2
0x7ffa <-- Track d0
0x85f4 <-- Track z0
0x80db <-- Track coth
0x2864 <-- Track phi
0x3d47 <-- Track curv
0x12f3 <-- (IBLa) 0 | ColWidth[2:0] | ColCoord[11:0]
0x17d9 <-- (IBLb) s | RowWidth[2:0] | RowCoord[11:0]
0x1790 <-- (PL0a) 0 | ColWidth[2:0] | ColCoord[11:0]
0x26dc <-- (PL0b) s | RowWidth[2:0] | RowCoord[11:0]
0x17e0 <-- (PL1a) 0 | ColWidth[2:0] | ColCoord[11:0]
0x20ea <-- (PL1b) s | RowWidth[2:0] | RowCoord[11:0]
0x1830 <-- (PL2a) 0 | ColWidth[2:0] | ColCoord[11:0]
0x26f3 <-- (PL2b) s | RowWidth[2:0] | RowCoord[11:0]
0x0130 <-- (SAx0) 0 | Width[2:0] | Res | Coord[10:0]
0x0148 <-- (SSt0) 0 | Width[2:0] | Res | Coord[10:0]
0x033c <-- (SAx1) 0 | Width[2:0] | Res | Coord[10:0]
0x0326 <-- (SSt1) 0 | Width[2:0] | Res | Coord[10:0]
0x0592 <-- (SAx2) 0 | Width[2:0] | Res | Coord[10:0]
0x0000 <-- (SSt2) 0 | Width[2:0] | Res | Coord[10:0]
0x0280 <-- (SAx3) 0 | Width[2:0] | Res | Coord[10:0]
0x0274 <-- (SSt3) 0 | Width[2:0] | Res | Coord[10:0]
0x0bda <-- Res[3:0] | L | 0xb | 0xd | 0xa, word=0xbda176e
0x176e <-- Sector Number
0x0016 <-- Res[3:0] | TFNum[3:0] | Res | Tower[6:0], word=0x160ffe
0x0ffe <-- Res[3:0] | Layermap[11:0]
0x0000 <-- Res[7:0] | RoadID[23:16], word=0x9
0x0009 <-- RoadID[15:0]
0x214f <-- Track chi2
0x81aa <-- Track d0
0x6db8 <-- Track z0
0x903b <-- Track coth
0x2a09 <-- Track phi
0xb3b0 <-- Track curv
0x0000 <-- (IBLa) 0 | ColWidth[2:0] | ColCoord[11:0]
0x0000 <-- (IBLb) s | RowWidth[2:0] | RowCoord[11:0]
0x15d0 <-- (PL0a) 0 | ColWidth[2:0] | ColCoord[11:0]
0x17d0 <-- (PL0b) s | RowWidth[2:0] | RowCoord[11:0]
0x11f0 <-- (PL1a) 0 | ColWidth[2:0] | ColCoord[11:0]
0x1188 <-- (PL1b) s | RowWidth[2:0] | RowCoord[11:0]
0x17c0 <-- (PL2a) 0 | ColWidth[2:0] | ColCoord[11:0]
0x1638 <-- (PL2b) s | RowWidth[2:0] | RowCoord[11:0]
0x043b <-- (SAx0) 0 | Width[2:0] | Res | Coord[10:0]
0x0464 <-- (SSt0) 0 | Width[2:0] | Res | Coord[10:0]
0x0458 <-- (SAx1) 0 | Width[2:0] | Res | Coord[10:0]
0x0478 <-- (SSt1) 0 | Width[2:0] | Res | Coord[10:0]
0x044f <-- (SAx2) 0 | Width[2:0] | Res | Coord[10:0]
0x045a <-- (SSt2) 0 | Width[2:0] | Res | Coord[10:0]
0x0409 <-- (SAx3) 0 | Width[2:0] | Res | Coord[10:0]
0x0446 <-- (SSt3) 0 | Width[2:0] | Res | Coord[10:0]
0x0bda <-- Res[3:0] | L | 0xb | 0xd | 0xa, word=0xbda7096
0x7096 <-- Sector Number
0x0016 <-- Res[3:0] | TFNum[3:0] | Res | Tower[6:0], word=0x160fff
0x0fff <-- Res[3:0] | Layermap[11:0]
0x0000 <-- Res[7:0] | RoadID[23:16], word=0x3
0x0003 <-- RoadID[15:0]
0x7647 <-- Track chi2
0x7f83 <-- Track d0
0x85f0 <-- Track z0
0x8d70 <-- Track coth
0x3718 <-- Track phi
0xd0f9 <-- Track curv
0x10a5 <-- (IBLa) 0 | ColWidth[2:0] | ColCoord[11:0]
0x15b9 <-- (IBLb) s | RowWidth[2:0] | RowCoord[11:0]
0x14a0 <-- (PL0a) 0 | ColWidth[2:0] | ColCoord[11:0]
0x2923 <-- (PL0b) s | RowWidth[2:0] | RowCoord[11:0]
0x1900 <-- (PL1a) 0 | ColWidth[2:0] | ColCoord[11:0]
0x10a0 <-- (PL1b) s | RowWidth[2:0] | RowCoord[11:0]
0x1420 <-- (PL2a) 0 | ColWidth[2:0] | ColCoord[11:0]
0x1280 <-- (PL2b) s | RowWidth[2:0] | RowCoord[11:0]
0x016d <-- (SAx0) 0 | Width[2:0] | Res | Coord[10:0]
0x0184 <-- (SSt0) 0 | Width[2:0] | Res | Coord[10:0]
0x038f <-- (SAx1) 0 | Width[2:0] | Res | Coord[10:0]
0x03b0 <-- (SSt1) 0 | Width[2:0] | Res | Coord[10:0]
0x055f <-- (SAx2) 0 | Width[2:0] | Res | Coord[10:0]
0x057c <-- (SSt2) 0 | Width[2:0] | Res | Coord[10:0]
0x00df <-- (SAx3) 0 | Width[2:0] | Res | Coord[10:0]
0x010a <-- (SSt3) 0 | Width[2:0] | Res | Coord[10:0]
0x0bda <-- Res[3:0] | L | 0xb | 0xd | 0xa, word=0xbda7a5d
0x7a5d <-- Sector Number
0x0016 <-- Res[3:0] | TFNum[3:0] | Res | Tower[6:0], word=0x160bff
0x0bff <-- Res[3:0] | Layermap[11:0]
0x0000 <-- Res[7:0] | RoadID[23:16], word=0x0
0x0000 <-- RoadID[15:0]
0x26f8 <-- Track chi2
0x8015 <-- Track d0
0x6dc6 <-- Track z0
0x871d <-- Track coth
0x4217 <-- Track phi
0x2613 <-- Track curv
0x11c7 <-- (IBLa) 0 | ColWidth[2:0] | ColCoord[11:0]
0x12c1 <-- (IBLb) s | RowWidth[2:0] | RowCoord[11:0]
0x113c <-- (PL0a) 0 | ColWidth[2:0] | ColCoord[11:0]
0x2a33 <-- (PL0b) s | RowWidth[2:0] | RowCoord[11:0]
0x139c <-- (PL1a) 0 | ColWidth[2:0] | ColCoord[11:0]
0x212c <-- (PL1b) s | RowWidth[2:0] | RowCoord[11:0]
0x1610 <-- (PL2a) 0 | ColWidth[2:0] | ColCoord[11:0]
0x2265 <-- (PL2b) s | RowWidth[2:0] | RowCoord[11:0]
0x0404 <-- (SAx0) 0 | Width[2:0] | Res | Coord[10:0]
0x03e6 <-- (SSt0) 0 | Width[2:0] | Res | Coord[10:0]
0x0586 <-- (SAx1) 0 | Width[2:0] | Res | Coord[10:0]
0x0548 <-- (SSt1) 0 | Width[2:0] | Res | Coord[10:0]
0x01dd <-- (SAx2) 0 | Width[2:0] | Res | Coord[10:0]
0x01f6 <-- (SSt2) 0 | Width[2:0] | Res | Coord[10:0]
0x0000 <-- (SAx3) 0 | Width[2:0] | Res | Coord[10:0]
0x0424 <-- (SSt3) 0 | Width[2:0] | Res | Coord[10:0]
0xe0da <-- Begin trailer debug block
0x0000 <-- Length of debug block | Indeterminate[3:0]
0xe0df <-- End debug block
0x0000 <-- Length of debug block | Indeterminate[3:0]
0x0000 <-- L1ID[31:16]
0x0000 <-- L1ID[15:0]
0x0000 <-- ErrorFlag[31:16]
0x0001 <-- ErrorFlag[15:0]
0x0000 <-- Res
0x0000 <-- Res
0x0000 <-- Res
0x0000 <-- Res
0xe0f0 <-- stripped by FLI in CoreCrateRcvr machine
0xa5a5 <-- stripped by FLI in CoreCrateRcvr machine
0x5a5a <-- stripped by FLI in CoreCrateRcvr machine
0x0e0f <-- stripped by FLI in CoreCrateRcvr machine
