0xee12
0x34ee <-- Start of Header Marker
0x0000
0x0009 <-- Header size - fixed
0x0301
0x0000 <-- Format version number - formed within FLIC from firmware
0x0000
0x007f <-- Source identifier - fixed
0x0003
0x652e <-- 0 | RunNumber[30:0]
0x0008
0x6740 <-- Extended level 1 ID
0x0000
0x0b01 <-- Res[31:12] | BCID[11:0]
0x0000
0x0000 <-- Res[31:8] | L1TriggerType[7:0]
0x0000
0x0000 <-- Res[31:24] | DetectorEventType[23:16] | Res[15:4] | TIM[3:0]
0x0bda
0x6c52 <-- Res[3:0] | L | 0xbda | sector
0x0016
0x07ff <-- 
0x0000
0x0002 <-- RoadID[23:0]
0x8154
0x8000 <-- Track chi2[31:16] | Track d0[15:0]
0x83b7
0x9333 <-- Track z0[31:16] | Track coth[15:0]
0x3416
0x4601 <-- Track phi0[31:16] | Track curv[15:0]
0x0000
0x015b <-- Res[31:12] | Module L0
0x219a
0x1489 <-- IBL
0x0000
0x027e <-- Res[31:12] | Module L1
0x2683
0x2766 <-- PL0b
0x0000
0x042c <-- Res[31:12] | Module L2
0x1460
0x28d3 <-- PL1b
0x0000
0x069d <-- Res[31:12] | Module L3
0x2092
0x11b8 <-- PL2b
0x03dc
0x09db <-- SAx0
0x040c
0x09da <-- SSt0
0x0220
0x0d6a <-- SAx1
0x024a
0x0d6b <-- SSt1
0x00cf
0x11bd <-- SAx2
0x00be
0x11bc <-- SSt2
0x0537
0x16b6 <-- SAx3
0x0000
0x16b7 <-- SSt3
0x0bda
0x0082 <-- Res[3:0] | L | 0xbda | sector
0x0016
0x0fff <-- 
0x0000
0x0000 <-- RoadID[23:0]
0x565e
0x7ffe <-- Track chi2[31:16] | Track d0[15:0]
0x84d2
0x81ad <-- Track z0[31:16] | Track coth[15:0]
0x3ad5
0x3af7 <-- Track phi0[31:16] | Track curv[15:0]
0x0000
0x015a <-- Res[31:12] | Module L0
0x12c1
0x2864 <-- IBL
0x0000
0x028a <-- Res[31:12] | Module L1
0x1790
0x238c <-- PL0b
0x0000
0x0437 <-- Res[31:12] | Module L2
0x1830
0x1950 <-- PL1b
0x0000
0x06a7 <-- Res[31:12] | Module L3
0x18b0
0x2623 <-- PL2b
0x03a8
0x09ed <-- SAx0
0x03b6
0x09ec <-- SSt0
0x0376
0x0d7c <-- SAx1
0x036e
0x0d7d <-- SSt1
0x03a0
0x11cd <-- SAx2
0x03a2
0x11cc <-- SSt2
0x03fc
0x16dc <-- SAx3
0x0402
0x16dd <-- SSt3
0xe0da
0x0000 <-- E0DA (begin debug block) | Length of debug block | Indeterminate[3:0]
0xe0df
0x0000 <-- E0DF (end debug block)   | Length of debug block | Indeterminate[3:0]
0x0000
0x0000 <-- L1ID
0x0000
0x0001 <-- ErrorFlag
0x0000
0x0000 <-- Res
0x0000
0x0000 <-- Res
