0xb0f0 <-- stripped by FLIC in CoreCrate machine
0xcaf0 <-- stripped by FLIC in CoreCrate machine, Bits[3:0] are indeterminate
0xff12 <-- stripped by FLIC in CoreCrate machine
0x34ff <-- stripped by FLIC in CoreCrate machine
0x0003 <-- 0 | RunNumber[30:16], RunNumber=0x3652e
0x652e <-- RunNumber[15:0], RunNumber=0x3652e
0x0008 <-- ExtendedLevel1ID[31:16], word=0x866e8
0x66e8 <-- ExtendedLevel1ID[15:0], word=0x866e8
0x0000 <-- Res
0x01e0 <-- Res[3:0] | BCID[11:0], word=0x1e0
0x0000 <-- Res
0x0000 <-- Res[7:0] | L1TriggerType[7:0], word=0x0
0x0000 <-- Res[7:0] | DetectorEventType[7:0]
0x0000 <-- Res[11:0] | TIM[3:0]
0x0bda <-- Res[3:0] | L | 0xb | 0xd | 0xa, word=0xbda2df6
0x2df6 <-- Sector Number
0x0016 <-- Res[3:0] | TFNum[3:0] | Res | Tower[6:0], word=0x160fff
0x0fff <-- Res[3:0] | Layermap[11:0]
0x0000 <-- Res[7:0] | RoadID[23:16], word=0x0
0x0000 <-- RoadID[15:0]
0x4584 <-- Track chi2
0x8018 <-- Track d0
0x823e <-- Track z0
0x927b <-- Track coth
0x2515 <-- Track phi
0x38a3 <-- Track curv
0x10e1 <-- (IBLa) 0 | ColWidth[2:0] | ColCoord[11:0]
0x15f9 <-- (IBLb) s | RowWidth[2:0] | RowCoord[11:0]
0x1540 <-- (PL0a) 0 | ColWidth[2:0] | ColCoord[11:0]
0x1428 <-- (PL0b) s | RowWidth[2:0] | RowCoord[11:0]
0x22d7 <-- (PL1a) 0 | ColWidth[2:0] | ColCoord[11:0]
0x25ec <-- (PL1b) s | RowWidth[2:0] | RowCoord[11:0]
0x1880 <-- (PL2a) 0 | ColWidth[2:0] | ColCoord[11:0]
0x2066 <-- (PL2b) s | RowWidth[2:0] | RowCoord[11:0]
0x04a4 <-- (SAx0) 0 | Width[2:0] | Res | Coord[10:0]
0x0470 <-- (SSt0) 0 | Width[2:0] | Res | Coord[10:0]
0x005a <-- (SAx1) 0 | Width[2:0] | Res | Coord[10:0]
0x0077 <-- (SSt1) 0 | Width[2:0] | Res | Coord[10:0]
0x024c <-- (SAx2) 0 | Width[2:0] | Res | Coord[10:0]
0x025d <-- (SSt2) 0 | Width[2:0] | Res | Coord[10:0]
0x0456 <-- (SAx3) 0 | Width[2:0] | Res | Coord[10:0]
0x0490 <-- (SSt3) 0 | Width[2:0] | Res | Coord[10:0]
0xe0da <-- Begin trailer debug block
0x0000 <-- Length of debug block | Indeterminate[3:0]
0xe0df <-- End debug block
0x0000 <-- Length of debug block | Indeterminate[3:0]
0x0000 <-- L1ID[31:16]
0x0000 <-- L1ID[15:0]
0x0000 <-- ErrorFlag[31:16]
0x0001 <-- ErrorFlag[15:0]
0x0000 <-- Res
0x0000 <-- Res
0x0000 <-- Res
0x0000 <-- Res
0xe0f0 <-- stripped by FLI in CoreCrateRcvr machine
0xa5a5 <-- stripped by FLI in CoreCrateRcvr machine
0x5a5a <-- stripped by FLI in CoreCrateRcvr machine
0x0e0f <-- stripped by FLI in CoreCrateRcvr machine
