0xb0f0 <-- stripped by FLIC in CoreCrate machine
0xcaf0 <-- stripped by FLIC in CoreCrate machine, Bits[3:0] are indeterminate
0xff12 <-- stripped by FLIC in CoreCrate machine
0x34ff <-- stripped by FLIC in CoreCrate machine
0x0003 <-- 0 | RunNumber[30:16], RunNumber=0x3652e
0x652e <-- RunNumber[15:0], RunNumber=0x3652e
0x0008 <-- ExtendedLevel1ID[31:16], word=0x86787
0x6787 <-- ExtendedLevel1ID[15:0], word=0x86787
0x0000 <-- Res
0x01ac <-- Res[3:0] | BCID[11:0], word=0x1ac
0x0000 <-- Res
0x0000 <-- Res[7:0] | L1TriggerType[7:0], word=0x0
0x0000 <-- Res[7:0] | DetectorEventType[7:0]
0x0000 <-- Res[11:0] | TIM[3:0]
0x0bda <-- Res[3:0] | L | 0xb | 0xd | 0xa, word=0xbda1b4d
0x1b4d <-- Sector Number
0x0016 <-- Res[3:0] | TFNum[3:0] | Res | Tower[6:0], word=0x160ff7
0x0ff7 <-- Res[3:0] | Layermap[11:0]
0x0000 <-- Res[7:0] | RoadID[23:16], word=0x42
0x0042 <-- RoadID[15:0]
0x4bd9 <-- Track chi2
0x7fce <-- Track d0
0x7518 <-- Track z0
0x872e <-- Track coth
0x39f0 <-- Track phi
0xced3 <-- Track curv
0x14d9 <-- (IBLa) 0 | ColWidth[2:0] | ColCoord[11:0]
0x1761 <-- (IBLb) s | RowWidth[2:0] | RowCoord[11:0]
0x13e0 <-- (PL0a) 0 | ColWidth[2:0] | ColCoord[11:0]
0x11e8 <-- (PL0b) s | RowWidth[2:0] | RowCoord[11:0]
0x16b0 <-- (PL1a) 0 | ColWidth[2:0] | ColCoord[11:0]
0x14d8 <-- (PL1b) s | RowWidth[2:0] | RowCoord[11:0]
0x0000 <-- (PL2a) 0 | ColWidth[2:0] | ColCoord[11:0]
0x0000 <-- (PL2b) s | RowWidth[2:0] | RowCoord[11:0]
0x0376 <-- (SAx0) 0 | Width[2:0] | Res | Coord[10:0]
0x033e <-- (SSt0) 0 | Width[2:0] | Res | Coord[10:0]
0x05f0 <-- (SAx1) 0 | Width[2:0] | Res | Coord[10:0]
0x05ca <-- (SSt1) 0 | Width[2:0] | Res | Coord[10:0]
0x026e <-- (SAx2) 0 | Width[2:0] | Res | Coord[10:0]
0x026b <-- (SSt2) 0 | Width[2:0] | Res | Coord[10:0]
0x0460 <-- (SAx3) 0 | Width[2:0] | Res | Coord[10:0]
0x0480 <-- (SSt3) 0 | Width[2:0] | Res | Coord[10:0]
0x0bda <-- Res[3:0] | L | 0xb | 0xd | 0xa, word=0xbda1f94
0x1f94 <-- Sector Number
0x0016 <-- Res[3:0] | TFNum[3:0] | Res | Tower[6:0], word=0x160ffe
0x0ffe <-- Res[3:0] | Layermap[11:0]
0x0000 <-- Res[7:0] | RoadID[23:16], word=0x0
0x0000 <-- RoadID[15:0]
0x0c68 <-- Track chi2
0x8046 <-- Track d0
0x63ce <-- Track z0
0x8b25 <-- Track coth
0x3dca <-- Track phi
0xc6d5 <-- Track curv
0x0000 <-- (IBLa) 0 | ColWidth[2:0] | ColCoord[11:0]
0x0000 <-- (IBLb) s | RowWidth[2:0] | RowCoord[11:0]
0x18d0 <-- (PL0a) 0 | ColWidth[2:0] | ColCoord[11:0]
0x2574 <-- (PL0b) s | RowWidth[2:0] | RowCoord[11:0]
0x1310 <-- (PL1a) 0 | ColWidth[2:0] | ColCoord[11:0]
0x1158 <-- (PL1b) s | RowWidth[2:0] | RowCoord[11:0]
0x172c <-- (PL2a) 0 | ColWidth[2:0] | ColCoord[11:0]
0x1700 <-- (PL2b) s | RowWidth[2:0] | RowCoord[11:0]
0x0100 <-- (SAx0) 0 | Width[2:0] | Res | Coord[10:0]
0x011e <-- (SSt0) 0 | Width[2:0] | Res | Coord[10:0]
0x04a0 <-- (SAx1) 0 | Width[2:0] | Res | Coord[10:0]
0x04ae <-- (SSt1) 0 | Width[2:0] | Res | Coord[10:0]
0x023a <-- (SAx2) 0 | Width[2:0] | Res | Coord[10:0]
0x026f <-- (SSt2) 0 | Width[2:0] | Res | Coord[10:0]
0x0538 <-- (SAx3) 0 | Width[2:0] | Res | Coord[10:0]
0x052f <-- (SSt3) 0 | Width[2:0] | Res | Coord[10:0]
0xe0da <-- Begin trailer debug block
0x0000 <-- Length of debug block | Indeterminate[3:0]
0xe0df <-- End debug block
0x0000 <-- Length of debug block | Indeterminate[3:0]
0x0000 <-- L1ID[31:16]
0x0000 <-- L1ID[15:0]
0x0000 <-- ErrorFlag[31:16]
0x0001 <-- ErrorFlag[15:0]
0x0000 <-- Res
0x0000 <-- Res
0x0000 <-- Res
0x0000 <-- Res
0xe0f0 <-- stripped by FLI in CoreCrateRcvr machine
0xa5a5 <-- stripped by FLI in CoreCrateRcvr machine
0x5a5a <-- stripped by FLI in CoreCrateRcvr machine
0x0e0f <-- stripped by FLI in CoreCrateRcvr machine
