0xb0f0 <-- stripped by FLIC in CoreCrate machine
0xcaf0 <-- stripped by FLIC in CoreCrate machine, Bits[3:0] are indeterminate
0xff12 <-- stripped by FLIC in CoreCrate machine
0x34ff <-- stripped by FLIC in CoreCrate machine
0x0003 <-- 0 | RunNumber[30:16], RunNumber=0x3652e
0x652e <-- RunNumber[15:0], RunNumber=0x3652e
0x0008 <-- ExtendedLevel1ID[31:16], word=0x86a83
0x6a83 <-- ExtendedLevel1ID[15:0], word=0x86a83
0x0000 <-- Res
0x03c5 <-- Res[3:0] | BCID[11:0], word=0x3c5
0x0000 <-- Res
0x0000 <-- Res[7:0] | L1TriggerType[7:0], word=0x0
0x0000 <-- Res[7:0] | DetectorEventType[7:0]
0x0000 <-- Res[11:0] | TIM[3:0]
0x0bda <-- Res[3:0] | L | 0xb | 0xd | 0xa, word=0xbda27c5
0x27c5 <-- Sector Number
0x0016 <-- Res[3:0] | TFNum[3:0] | Res | Tower[6:0], word=0x160fff
0x0fff <-- Res[3:0] | Layermap[11:0]
0x0000 <-- Res[7:0] | RoadID[23:16], word=0x13
0x0013 <-- RoadID[15:0]
0x53b0 <-- Track chi2
0x7fd1 <-- Track d0
0x873f <-- Track z0
0x9345 <-- Track coth
0x256d <-- Track phi
0x4761 <-- Track curv
0x2324 <-- (IBLa) 0 | ColWidth[2:0] | ColCoord[11:0]
0x1611 <-- (IBLb) s | RowWidth[2:0] | RowCoord[11:0]
0x2793 <-- (PL0a) 0 | ColWidth[2:0] | ColCoord[11:0]
0x243b <-- (PL0b) s | RowWidth[2:0] | RowCoord[11:0]
0x1580 <-- (PL1a) 0 | ColWidth[2:0] | ColCoord[11:0]
0x35e9 <-- (PL1b) s | RowWidth[2:0] | RowCoord[11:0]
0x2303 <-- (PL2a) 0 | ColWidth[2:0] | ColCoord[11:0]
0x2a2c <-- (PL2b) s | RowWidth[2:0] | RowCoord[11:0]
0x040a <-- (SAx0) 0 | Width[2:0] | Res | Coord[10:0]
0x042e <-- (SSt0) 0 | Width[2:0] | Res | Coord[10:0]
0x0538 <-- (SAx1) 0 | Width[2:0] | Res | Coord[10:0]
0x0568 <-- (SSt1) 0 | Width[2:0] | Res | Coord[10:0]
0x0116 <-- (SAx2) 0 | Width[2:0] | Res | Coord[10:0]
0x00fa <-- (SSt2) 0 | Width[2:0] | Res | Coord[10:0]
0x02ba <-- (SAx3) 0 | Width[2:0] | Res | Coord[10:0]
0x02aa <-- (SSt3) 0 | Width[2:0] | Res | Coord[10:0]
0xe0da <-- Begin trailer debug block
0x0000 <-- Length of debug block | Indeterminate[3:0]
0xe0df <-- End debug block
0x0000 <-- Length of debug block | Indeterminate[3:0]
0x0000 <-- L1ID[31:16]
0x0000 <-- L1ID[15:0]
0x0000 <-- ErrorFlag[31:16]
0x0001 <-- ErrorFlag[15:0]
0x0000 <-- Res
0x0000 <-- Res
0x0000 <-- Res
0x0000 <-- Res
0xe0f0 <-- stripped by FLI in CoreCrateRcvr machine
0xa5a5 <-- stripped by FLI in CoreCrateRcvr machine
0x5a5a <-- stripped by FLI in CoreCrateRcvr machine
0x0e0f <-- stripped by FLI in CoreCrateRcvr machine
