0xb0f0 <-- stripped by FLIC in CoreCrate machine
0xcaf0 <-- stripped by FLIC in CoreCrate machine, Bits[3:0] are indeterminate
0xff12 <-- stripped by FLIC in CoreCrate machine
0x34ff <-- stripped by FLIC in CoreCrate machine
0x0003 <-- 0 | RunNumber[30:16], RunNumber=0x3652e
0x652e <-- RunNumber[15:0], RunNumber=0x3652e
0x0008 <-- ExtendedLevel1ID[31:16], word=0x86aae
0x6aae <-- ExtendedLevel1ID[15:0], word=0x86aae
0x0000 <-- Res
0x09f8 <-- Res[3:0] | BCID[11:0], word=0x9f8
0x0000 <-- Res
0x0000 <-- Res[7:0] | L1TriggerType[7:0], word=0x0
0x0000 <-- Res[7:0] | DetectorEventType[7:0]
0x0000 <-- Res[11:0] | TIM[3:0]
0x0bda <-- Res[3:0] | L | 0xb | 0xd | 0xa, word=0xbda1be2
0x1be2 <-- Sector Number
0x0016 <-- Res[3:0] | TFNum[3:0] | Res | Tower[6:0], word=0x160ffb
0x0ffb <-- Res[3:0] | Layermap[11:0]
0x0000 <-- Res[7:0] | RoadID[23:16], word=0x26
0x0026 <-- RoadID[15:0]
0x436c <-- Track chi2
0x801a <-- Track d0
0x6395 <-- Track z0
0x8750 <-- Track coth
0x3199 <-- Track phi
0x4cb7 <-- Track curv
0x1443 <-- (IBLa) 0 | ColWidth[2:0] | ColCoord[11:0]
0x2335 <-- (IBLb) s | RowWidth[2:0] | RowCoord[11:0]
0x16c0 <-- (PL0a) 0 | ColWidth[2:0] | ColCoord[11:0]
0x1548 <-- (PL0b) s | RowWidth[2:0] | RowCoord[11:0]
0x0000 <-- (PL1a) 0 | ColWidth[2:0] | ColCoord[11:0]
0x0000 <-- (PL1b) s | RowWidth[2:0] | RowCoord[11:0]
0x1254 <-- (PL2a) 0 | ColWidth[2:0] | ColCoord[11:0]
0x25bb <-- (PL2b) s | RowWidth[2:0] | RowCoord[11:0]
0x01ae <-- (SAx0) 0 | Width[2:0] | Res | Coord[10:0]
0x01a0 <-- (SSt0) 0 | Width[2:0] | Res | Coord[10:0]
0x0512 <-- (SAx1) 0 | Width[2:0] | Res | Coord[10:0]
0x053a <-- (SSt1) 0 | Width[2:0] | Res | Coord[10:0]
0x0310 <-- (SAx2) 0 | Width[2:0] | Res | Coord[10:0]
0x033e <-- (SSt2) 0 | Width[2:0] | Res | Coord[10:0]
0x0138 <-- (SAx3) 0 | Width[2:0] | Res | Coord[10:0]
0x012c <-- (SSt3) 0 | Width[2:0] | Res | Coord[10:0]
0x0bda <-- Res[3:0] | L | 0xb | 0xd | 0xa, word=0xbda3135
0x3135 <-- Sector Number
0x0016 <-- Res[3:0] | TFNum[3:0] | Res | Tower[6:0], word=0x160fff
0x0fff <-- Res[3:0] | Layermap[11:0]
0x0000 <-- Res[7:0] | RoadID[23:16], word=0x5
0x0005 <-- RoadID[15:0]
0x0898 <-- Track chi2
0x8014 <-- Track d0
0x956f <-- Track z0
0x8647 <-- Track coth
0x2e3d <-- Track phi
0x553b <-- Track curv
0x1461 <-- (IBLa) 0 | ColWidth[2:0] | ColCoord[11:0]
0x216d <-- (IBLb) s | RowWidth[2:0] | RowCoord[11:0]
0x16c0 <-- (PL0a) 0 | ColWidth[2:0] | ColCoord[11:0]
0x224c <-- (PL0b) s | RowWidth[2:0] | RowCoord[11:0]
0x1960 <-- (PL1a) 0 | ColWidth[2:0] | ColCoord[11:0]
0x294d <-- (PL1b) s | RowWidth[2:0] | RowCoord[11:0]
0x11e0 <-- (PL2a) 0 | ColWidth[2:0] | ColCoord[11:0]
0x28bb <-- (PL2b) s | RowWidth[2:0] | RowCoord[11:0]
0x04c2 <-- (SAx0) 0 | Width[2:0] | Res | Coord[10:0]
0x04c8 <-- (SSt0) 0 | Width[2:0] | Res | Coord[10:0]
0x01b0 <-- (SAx1) 0 | Width[2:0] | Res | Coord[10:0]
0x01ca <-- (SSt1) 0 | Width[2:0] | Res | Coord[10:0]
0x04a6 <-- (SAx2) 0 | Width[2:0] | Res | Coord[10:0]
0x0472 <-- (SSt2) 0 | Width[2:0] | Res | Coord[10:0]
0x0206 <-- (SAx3) 0 | Width[2:0] | Res | Coord[10:0]
0x01de <-- (SSt3) 0 | Width[2:0] | Res | Coord[10:0]
0x0bda <-- Res[3:0] | L | 0xb | 0xd | 0xa, word=0xbda3a13
0x3a13 <-- Sector Number
0x0016 <-- Res[3:0] | TFNum[3:0] | Res | Tower[6:0], word=0x160bff
0x0bff <-- Res[3:0] | Layermap[11:0]
0x0000 <-- Res[7:0] | RoadID[23:16], word=0x1
0x0001 <-- RoadID[15:0]
0x2407 <-- Track chi2
0x7fe5 <-- Track d0
0x6c50 <-- Track z0
0x8955 <-- Track coth
0x43b5 <-- Track phi
0xaee2 <-- Track curv
0x21ea <-- (IBLa) 0 | ColWidth[2:0] | ColCoord[11:0]
0x1339 <-- (IBLb) s | RowWidth[2:0] | RowCoord[11:0]
0x1160 <-- (PL0a) 0 | ColWidth[2:0] | ColCoord[11:0]
0x2103 <-- (PL0b) s | RowWidth[2:0] | RowCoord[11:0]
0x14e0 <-- (PL1a) 0 | ColWidth[2:0] | ColCoord[11:0]
0x10e8 <-- (PL1b) s | RowWidth[2:0] | RowCoord[11:0]
0x2806 <-- (PL2a) 0 | ColWidth[2:0] | ColCoord[11:0]
0x1090 <-- (PL2b) s | RowWidth[2:0] | RowCoord[11:0]
0x005e <-- (SAx0) 0 | Width[2:0] | Res | Coord[10:0]
0x008a <-- (SSt0) 0 | Width[2:0] | Res | Coord[10:0]
0x058e <-- (SAx1) 0 | Width[2:0] | Res | Coord[10:0]
0x0582 <-- (SSt1) 0 | Width[2:0] | Res | Coord[10:0]
0x04c2 <-- (SAx2) 0 | Width[2:0] | Res | Coord[10:0]
0x049e <-- (SSt2) 0 | Width[2:0] | Res | Coord[10:0]
0x0000 <-- (SAx3) 0 | Width[2:0] | Res | Coord[10:0]
0x0390 <-- (SSt3) 0 | Width[2:0] | Res | Coord[10:0]
0xe0da <-- Begin trailer debug block
0x0000 <-- Length of debug block | Indeterminate[3:0]
0xe0df <-- End debug block
0x0000 <-- Length of debug block | Indeterminate[3:0]
0x0000 <-- L1ID[31:16]
0x0000 <-- L1ID[15:0]
0x0000 <-- ErrorFlag[31:16]
0x0001 <-- ErrorFlag[15:0]
0x0000 <-- Res
0x0000 <-- Res
0x0000 <-- Res
0x0000 <-- Res
0xe0f0 <-- stripped by FLI in CoreCrateRcvr machine
0xa5a5 <-- stripped by FLI in CoreCrateRcvr machine
0x5a5a <-- stripped by FLI in CoreCrateRcvr machine
0x0e0f <-- stripped by FLI in CoreCrateRcvr machine
