0xee12
0x34ee <-- Start of Header Marker
0x0000
0x0009 <-- Header size - fixed
0x0301
0x0000 <-- Format version number - formed within FLIC from firmware
0x0000
0x007f <-- Source identifier - fixed
0x0003
0x652e <-- 0 | RunNumber[30:0]
0x0008
0x6a03 <-- Extended level 1 ID
0x0000
0x0600 <-- Res[31:12] | BCID[11:0]
0x0000
0x0000 <-- Res[31:8] | L1TriggerType[7:0]
0x0000
0x0000 <-- Res[31:24] | DetectorEventType[23:16] | Res[15:4] | TIM[3:0]
0x0bda
0x3e18 <-- Res[3:0] | L | 0xbda | sector
0x0016
0x0dff <-- 
0x0000
0x00f5 <-- RoadID[23:0]
0x3e8e
0x7fef <-- Track chi2[31:16] | Track d0[15:0]
0x7e00
0x843e <-- Track z0[31:16] | Track coth[15:0]
0x2507
0x4245 <-- Track phi0[31:16] | Track curv[15:0]
0x0000
0x0146 <-- Res[31:12] | Module L0
0x10e1
0x15e1 <-- IBL
0x0000
0x0270 <-- Res[31:12] | Module L1
0x1610
0x13e8 <-- PL0b
0x0000
0x0410 <-- Res[31:12] | Module L2
0x17b0
0x2544 <-- PL1b
0x0000
0x0666 <-- Res[31:12] | Module L3
0x1930
0x296b <-- PL2b
0x040e
0x09a5 <-- SAx0
0x03fc
0x09a4 <-- SSt0
0x0542
0x0d1c <-- SAx1
0x0566
0x0d1d <-- SSt1
0x012f
0x116d <-- SAx2
0x0000
0x116c <-- SSt2
0x02ea
0x1666 <-- SAx3
0x02ba
0x1667 <-- SSt3
0x0bda
0x0650 <-- Res[3:0] | L | 0xbda | sector
0x0016
0x0fff <-- 
0x0000
0x0020 <-- RoadID[23:0]
0x2a8d
0x8049 <-- Track chi2[31:16] | Track d0[15:0]
0xa07f
0x877e <-- Track z0[31:16] | Track coth[15:0]
0x2dcc
0xc3fd <-- Track phi0[31:16] | Track curv[15:0]
0x0000
0x015c <-- Res[31:12] | Module L0
0x12b7
0x20f4 <-- IBL
0x0000
0x027f <-- Res[31:12] | Module L1
0x1220
0x1168 <-- PL0b
0x0000
0x041f <-- Res[31:12] | Module L2
0x2528
0x267b <-- PL1b
0x0000
0x0682 <-- Res[31:12] | Module L3
0x1790
0x236a <-- PL2b
0x0084
0x09bf <-- SAx0
0x004d
0x09be <-- SSt0
0x0130
0x0d38 <-- SAx1
0x010d
0x0d39 <-- SSt1
0x0191
0x1171 <-- SAx2
0x0192
0x1170 <-- SSt2
0x0194
0x1668 <-- SAx3
0x01b6
0x1669 <-- SSt3
0x0bda
0x5e9e <-- Res[3:0] | L | 0xbda | sector
0x0016
0x0fff <-- 
0x0000
0x001c <-- RoadID[23:0]
0x35c1
0x7fa5 <-- Track chi2[31:16] | Track d0[15:0]
0xa00a
0x870e <-- Track z0[31:16] | Track coth[15:0]
0x3516
0xbf32 <-- Track phi0[31:16] | Track curv[15:0]
0x0000
0x015c <-- Res[31:12] | Module L0
0x1271
0x14b1 <-- IBL
0x0000
0x027f <-- Res[31:12] | Module L1
0x21f5
0x1788 <-- PL0b
0x0000
0x042c <-- Res[31:12] | Module L2
0x14a0
0x17a8 <-- PL1b
0x0000
0x068f <-- Res[31:12] | Module L3
0x1714
0x28ab <-- PL2b
0x0053
0x09d7 <-- SAx0
0x0026
0x09d6 <-- SSt0
0x0282
0x0d50 <-- SAx1
0x0251
0x0d51 <-- SSt1
0x045f
0x1189 <-- SAx2
0x0470
0x1188 <-- SSt2
0x05e0
0x1680 <-- SAx3
0x05ed
0x1681 <-- SSt3
0x0bda
0x0b8e <-- Res[3:0] | L | 0xbda | sector
0x0016
0x0fff <-- 
0x0000
0x0016 <-- RoadID[23:0]
0x2771
0x7ffa <-- Track chi2[31:16] | Track d0[15:0]
0xa07c
0x8bc7 <-- Track z0[31:16] | Track coth[15:0]
0x2f2d
0x2f8d <-- Track phi0[31:16] | Track curv[15:0]
0x0000
0x015c <-- Res[31:12] | Module L0
0x241a
0x21fe <-- IBL
0x0000
0x027f <-- Res[31:12] | Module L1
0x1450
0x2355 <-- PL0b
0x0000
0x042c <-- Res[31:12] | Module L2
0x18a0
0x11a8 <-- PL1b
0x0000
0x0690 <-- Res[31:12] | Module L3
0x1320
0x1210 <-- PL2b
0x00ed
0x09d9 <-- SAx0
0x00e2
0x09d8 <-- SSt0
0x0472
0x0d50 <-- SAx1
0x04aa
0x0d51 <-- SSt1
0x02aa
0x11a3 <-- SAx2
0x02b0
0x11a2 <-- SSt2
0x0132
0x16b2 <-- SAx3
0x0164
0x16b3 <-- SSt3
0x0bda
0x8c2d <-- Res[3:0] | L | 0xbda | sector
0x0016
0x03fe <-- 
0x0000
0x0015 <-- RoadID[23:0]
0x18ea
0x8048 <-- Track chi2[31:16] | Track d0[15:0]
0x7e07
0x92fa <-- Track z0[31:16] | Track coth[15:0]
0x2fb3
0x596f <-- Track phi0[31:16] | Track curv[15:0]
0x0000
0x015a <-- Res[31:12] | Module L0
0x0000
0x0000 <-- IBL
0x0000
0x027e <-- Res[31:12] | Module L1
0x23c4
0x1398 <-- PL0b
0x0000
0x042c <-- Res[31:12] | Module L2
0x113c
0x21ec <-- PL1b
0x0000
0x068f <-- Res[31:12] | Module L3
0x1780
0x11a8 <-- PL2b
0x05c2
0x09c1 <-- SAx0
0x0594
0x09c0 <-- SSt0
0x02e4
0x0d52 <-- SAx1
0x02f8
0x0d53 <-- SSt1
0x0058
0x11a5 <-- SAx2
0x0060
0x11a4 <-- SSt2
0x0000
0x169c <-- SAx3
0x0000
0x169d <-- SSt3
0x0bda
0x0616 <-- Res[3:0] | L | 0xbda | sector
0x0016
0x03ff <-- 
0x0000
0x0012 <-- RoadID[23:0]
0x7ae0
0x7fab <-- Track chi2[31:16] | Track d0[15:0]
0x9b02
0x7d79 <-- Track z0[31:16] | Track coth[15:0]
0x3ca7
0xaf48 <-- Track phi0[31:16] | Track curv[15:0]
0x0000
0x015b <-- Res[31:12] | Module L0
0x13b7
0x290e <-- IBL
0x0000
0x028b <-- Res[31:12] | Module L1
0x34a2
0x7472 <-- PL0b
0x0000
0x0438 <-- Res[31:12] | Module L2
0x139c
0x29bb <-- PL1b
0x0000
0x06a8 <-- Res[31:12] | Module L3
0x12e0
0x2574 <-- PL2b
0x00f4
0x09ed <-- SAx0
0x0115
0x09ec <-- SSt0
0x04bf
0x0d64 <-- SAx1
0x0492
0x0d65 <-- SSt1
0x029c
0x11b5 <-- SAx2
0x02d3
0x11b4 <-- SSt2
0x0000
0x16ac <-- SAx3
0x0000
0x16ad <-- SSt3
0x0bda
0x1060 <-- Res[3:0] | L | 0xbda | sector
0x0016
0x0ffe <-- 
0x0000
0x0000 <-- RoadID[23:0]
0x46dd
0x800c <-- Track chi2[31:16] | Track d0[15:0]
0x7d45
0x9288 <-- Track z0[31:16] | Track coth[15:0]
0x41d0
0xbac5 <-- Track phi0[31:16] | Track curv[15:0]
0x0000
0x016f <-- Res[31:12] | Module L0
0x0000
0x0000 <-- IBL
0x0000
0x028b <-- Res[31:12] | Module L1
0x23d3
0x2903 <-- PL0b
0x0000
0x0446 <-- Res[31:12] | Module L2
0x211f
0x27bb <-- PL1b
0x0000
0x06b6 <-- Res[31:12] | Module L3
0x1714
0x1600 <-- PL2b
0x0492
0x09f1 <-- SAx0
0x0466
0x09f0 <-- SSt0
0x0334
0x0d82 <-- SAx1
0x033e
0x0d83 <-- SSt1
0x01d9
0x11d5 <-- SAx2
0x01ed
0x11d4 <-- SSt2
0x000f
0x16e4 <-- SAx3
0x0055
0x16e5 <-- SSt3
0xe0da
0x0000 <-- E0DA (begin debug block) | Length of debug block | Indeterminate[3:0]
0xe0df
0x0000 <-- E0DF (end debug block)   | Length of debug block | Indeterminate[3:0]
0x0000
0x0000 <-- L1ID
0x0000
0x0001 <-- ErrorFlag
0x0000
0x0000 <-- Res
0x0000
0x0000 <-- Res
