0xee12
0x34ee <-- Start of Header Marker
0x0000
0x0009 <-- Header size - fixed
0x0301
0x0000 <-- Format version number - formed within FLIC from firmware
0x0000
0x007f <-- Source identifier - fixed
0x0003
0x652e <-- 0 | RunNumber[30:0]
0x0008
0x69f0 <-- Extended level 1 ID
0x0000
0x055a <-- Res[31:12] | BCID[11:0]
0x0000
0x0000 <-- Res[31:8] | L1TriggerType[7:0]
0x0000
0x0000 <-- Res[31:24] | DetectorEventType[23:16] | Res[15:4] | TIM[3:0]
0x0bda
0x1453 <-- Res[3:0] | L | 0xbda | sector
0x0016
0x0fbf <-- 
0x0000
0x0315 <-- RoadID[23:0]
0x6d16
0x7fe1 <-- Track chi2[31:16] | Track d0[15:0]
0x9dd2
0x8984 <-- Track z0[31:16] | Track coth[15:0]
0x2d2b
0xc252 <-- Track phi0[31:16] | Track curv[15:0]
0x0000
0x015c <-- Res[31:12] | Module L0
0x1249
0x1091 <-- IBL
0x0000
0x027f <-- Res[31:12] | Module L1
0x1210
0x10d8 <-- PL0b
0x0000
0x041f <-- Res[31:12] | Module L2
0x15d0
0x1570 <-- PL1b
0x0000
0x0682 <-- Res[31:12] | Module L3
0x28db
0x11f0 <-- PL2b
0x0009
0x09c1 <-- SAx0
0x002d
0x09c0 <-- SSt0
0x0000
0x0d38 <-- SAx1
0x0082
0x0d39 <-- SSt1
0x00ce
0x1171 <-- SAx2
0x009e
0x1170 <-- SSt2
0x009e
0x166a <-- SAx3
0x0081
0x166b <-- SSt3
0x0bda
0x1e58 <-- Res[3:0] | L | 0xbda | sector
0x0016
0x0f3f <-- 
0x0000
0x02ff <-- RoadID[23:0]
0x163b
0x802a <-- Track chi2[31:16] | Track d0[15:0]
0x8310
0x875b <-- Track z0[31:16] | Track coth[15:0]
0x2fdf
0x671c <-- Track phi0[31:16] | Track curv[15:0]
0x0000
0x015a <-- Res[31:12] | Module L0
0x13df
0x223e <-- IBL
0x0000
0x027e <-- Res[31:12] | Module L1
0x100c
0x13b8 <-- PL0b
0x0000
0x042b <-- Res[31:12] | Module L2
0x12c0
0x21d2 <-- PL1b
0x0000
0x068e <-- Res[31:12] | Module L3
0x2533
0x1178 <-- PL2b
0x0560
0x09bf <-- SAx0
0x0582
0x09be <-- SSt0
0x0000
0x0d4e <-- SAx1
0x0000
0x0d4f <-- SSt1
0x051e
0x1187 <-- SAx2
0x04fc
0x1186 <-- SSt2
0x0250
0x1698 <-- SAx3
0x021c
0x1699 <-- SSt3
0x0bda
0x0616 <-- Res[3:0] | L | 0xbda | sector
0x0016
0x0ff7 <-- 
0x0000
0x02f5 <-- RoadID[23:0]
0x0cec
0x8bc5 <-- Track chi2[31:16] | Track d0[15:0]
0x9d6d
0x7e55 <-- Track z0[31:16] | Track coth[15:0]
0x39c3
0x91d8 <-- Track phi0[31:16] | Track curv[15:0]
0x0000
0x015b <-- Res[31:12] | Module L0
0x14f7
0x2984 <-- IBL
0x0000
0x028b <-- Res[31:12] | Module L1
0x1610
0x1430 <-- PL0b
0x0000
0x0438 <-- Res[31:12] | Module L2
0x1560
0x17f8 <-- PL1b
0x0000
0x06a8 <-- Res[31:12] | Module L3
0x0000
0x0000 <-- PL2b
0x0010
0x09ed <-- SAx0
0x001a
0x09ec <-- SSt0
0x03e6
0x0d64 <-- SAx1
0x03d2
0x0d65 <-- SSt1
0x01e4
0x11b5 <-- SAx2
0x01fe
0x11b4 <-- SSt2
0x057e
0x16ac <-- SAx3
0x055a
0x16ad <-- SSt3
0x0bda
0x79b6 <-- Res[3:0] | L | 0xbda | sector
0x0016
0x0dff <-- 
0x0000
0x02ce <-- RoadID[23:0]
0x4cbd
0x7fef <-- Track chi2[31:16] | Track d0[15:0]
0x839f
0x8212 <-- Track z0[31:16] | Track coth[15:0]
0x4019
0xbc34 <-- Track phi0[31:16] | Track curv[15:0]
0x0000
0x016e <-- Res[31:12] | Module L0
0x125d
0x1151 <-- IBL
0x0000
0x028a <-- Res[31:12] | Module L1
0x274a
0x273b <-- PL0b
0x0000
0x0444 <-- Res[31:12] | Module L2
0x1810
0x24fc <-- PL1b
0x0000
0x06b4 <-- Res[31:12] | Module L3
0x18b0
0x12b0 <-- PL2b
0x0362
0x09ed <-- SAx0
0x0368
0x09ec <-- SSt0
0x01bc
0x0d7c <-- SAx1
0x01c2
0x0d7d <-- SSt1
0x05ce
0x11b5 <-- SAx2
0x0000
0x11cc <-- SSt2
0x03b4
0x16c4 <-- SAx3
0x03ca
0x16c5 <-- SSt3
0x0bda
0x0032 <-- Res[3:0] | L | 0xbda | sector
0x0016
0x0fbe <-- 
0x0000
0x00f5 <-- RoadID[23:0]
0x131b
0x7f54 <-- Track chi2[31:16] | Track d0[15:0]
0x9da7
0x7fd1 <-- Track z0[31:16] | Track coth[15:0]
0x3ddd
0x2cc8 <-- Track phi0[31:16] | Track curv[15:0]
0x0000
0x016f <-- Res[31:12] | Module L0
0x0000
0x0000 <-- IBL
0x0000
0x028b <-- Res[31:12] | Module L1
0x16e0
0x262d <-- PL0b
0x0000
0x0445 <-- Res[31:12] | Module L2
0x16d0
0x2445 <-- PL1b
0x0000
0x06b5 <-- Res[31:12] | Module L3
0x16c0
0x1320 <-- PL2b
0x00a8
0x0a05 <-- SAx0
0x0098
0x0a04 <-- SSt0
0x0000
0x0d94 <-- SAx1
0x0162
0x0d95 <-- SSt1
0x0268
0x11e5 <-- SAx2
0x025b
0x11e4 <-- SSt2
0x03b4
0x16f4 <-- SAx3
0x03be
0x16f5 <-- SSt3
0x0bda
0x05cf <-- Res[3:0] | L | 0xbda | sector
0x0016
0x0ffd <-- 
0x0000
0x00f1 <-- RoadID[23:0]
0x3a1f
0x7fba <-- Track chi2[31:16] | Track d0[15:0]
0x9dd0
0x8ddf <-- Track z0[31:16] | Track coth[15:0]
0x3f7f
0x31d6 <-- Track phi0[31:16] | Track curv[15:0]
0x0000
0x0170 <-- Res[31:12] | Module L0
0x23b1
0x1151 <-- IBL
0x0000
0x028c <-- Res[31:12] | Module L1
0x0000
0x0000 <-- PL0b
0x0000
0x0447 <-- Res[31:12] | Module L2
0x203a
0x26ec <-- PL1b
0x0000
0x06b7 <-- Res[31:12] | Module L3
0x14cc
0x2663 <-- PL2b
0x0198
0x0a09 <-- SAx0
0x0170
0x0a08 <-- SSt0
0x0266
0x0d9a <-- SAx1
0x0251
0x0d9b <-- SSt1
0x039e
0x11eb <-- SAx2
0x0376
0x11ea <-- SSt2
0x050a
0x16fc <-- SAx3
0x04f4
0x16fd <-- SSt3
0x0bda
0x08b0 <-- Res[3:0] | L | 0xbda | sector
0x0016
0x0bfe <-- 
0x0000
0x00ea <-- RoadID[23:0]
0x3f39
0x80ae <-- Track chi2[31:16] | Track d0[15:0]
0x9db6
0x7e49 <-- Track z0[31:16] | Track coth[15:0]
0x31d5
0xd3a4 <-- Track phi0[31:16] | Track curv[15:0]
0x0000
0x015b <-- Res[31:12] | Module L0
0x0000
0x0000 <-- IBL
0x0000
0x027e <-- Res[31:12] | Module L1
0x1620
0x249c <-- PL0b
0x0000
0x042b <-- Res[31:12] | Module L2
0x1580
0x12a0 <-- PL1b
0x0000
0x068e <-- Res[31:12] | Module L3
0x14f0
0x1188 <-- PL2b
0x0340
0x09bd <-- SAx0
0x034a
0x09bc <-- SSt0
0x0442
0x0d34 <-- SAx1
0x0430
0x0d35 <-- SSt1
0x0509
0x116d <-- SAx2
0x0523
0x116c <-- SSt2
0x0000
0x1664 <-- SAx3
0x0538
0x1665 <-- SSt3
0x0bda
0x0ef2 <-- Res[3:0] | L | 0xbda | sector
0x0016
0x0fff <-- 
0x0000
0x00e8 <-- RoadID[23:0]
0x23a0
0x7fce <-- Track chi2[31:16] | Track d0[15:0]
0x9da7
0x843f <-- Track z0[31:16] | Track coth[15:0]
0x2d47
0xb2e5 <-- Track phi0[31:16] | Track curv[15:0]
0x0000
0x015c <-- Res[31:12] | Module L0
0x1087
0x20a7 <-- IBL
0x0000
0x027e <-- Res[31:12] | Module L1
0x1900
0x10e8 <-- PL0b
0x0000
0x041f <-- Res[31:12] | Module L2
0x1124
0x2605 <-- PL1b
0x0000
0x0682 <-- Res[31:12] | Module L3
0x1280
0x22f5 <-- PL2b
0x00bf
0x09bf <-- SAx0
0x00d0
0x09be <-- SSt0
0x018d
0x0d36 <-- SAx1
0x018e
0x0d37 <-- SSt1
0x023e
0x116f <-- SAx2
0x0228
0x116e <-- SSt2
0x029c
0x1666 <-- SAx3
0x02c4
0x1667 <-- SSt3
0x0bda
0x36b4 <-- Res[3:0] | L | 0xbda | sector
0x0016
0x0fff <-- 
0x0000
0x00da <-- RoadID[23:0]
0x346b
0x8004 <-- Track chi2[31:16] | Track d0[15:0]
0x82fd
0x8532 <-- Track z0[31:16] | Track coth[15:0]
0x306f
0x36af <-- Track phi0[31:16] | Track curv[15:0]
0x0000
0x015a <-- Res[31:12] | Module L0
0x1329
0x22a4 <-- IBL
0x0000
0x027d <-- Res[31:12] | Module L1
0x1880
0x2436 <-- PL0b
0x0000
0x042b <-- Res[31:12] | Module L2
0x10e0
0x13a8 <-- PL1b
0x0000
0x068e <-- Res[31:12] | Module L3
0x12b0
0x248d <-- PL2b
0x01bc
0x09d5 <-- SAx0
0x0188
0x09d4 <-- SSt0
0x055a
0x0d4e <-- SAx1
0x0524
0x0d4f <-- SSt1
0x03b4
0x119f <-- SAx2
0x03cc
0x119e <-- SSt2
0x0248
0x16ae <-- SAx3
0x0248
0x16af <-- SSt3
0x0bda
0x64fa <-- Res[3:0] | L | 0xbda | sector
0x0016
0x0fff <-- 
0x0000
0x00d8 <-- RoadID[23:0]
0x3990
0x8022 <-- Track chi2[31:16] | Track d0[15:0]
0x8304
0x8545 <-- Track z0[31:16] | Track coth[15:0]
0x3703
0xabcc <-- Track phi0[31:16] | Track curv[15:0]
0x0000
0x015a <-- Res[31:12] | Module L0
0x133b
0x15e1 <-- IBL
0x0000
0x027d <-- Res[31:12] | Module L1
0x18c0
0x2944 <-- PL0b
0x0000
0x0438 <-- Res[31:12] | Module L2
0x10f0
0x1180 <-- PL1b
0x0000
0x069b <-- Res[31:12] | Module L3
0x12c0
0x23c2 <-- PL2b
0x029e
0x09d5 <-- SAx0
0x0268
0x09d4 <-- SSt0
0x0542
0x0d4e <-- SAx1
0x0512
0x0d4f <-- SSt1
0x0211
0x119f <-- SAx2
0x0224
0x119e <-- SSt2
0x047a
0x1696 <-- SAx3
0x047c
0x1697 <-- SSt3
0x0bda
0x0101 <-- Res[3:0] | L | 0xbda | sector
0x0016
0x0fff <-- 
0x0000
0x006a <-- RoadID[23:0]
0x3b5b
0x818f <-- Track chi2[31:16] | Track d0[15:0]
0x9d4b
0x7e4b <-- Track z0[31:16] | Track coth[15:0]
0x3d46
0x7873 <-- Track phi0[31:16] | Track curv[15:0]
0x0000
0x015b <-- Res[31:12] | Module L0
0x34e8
0x39f9 <-- IBL
0x0000
0x028b <-- Res[31:12] | Module L1
0x25f1
0x3597 <-- PL0b
0x0000
0x0445 <-- Res[31:12] | Module L2
0x1560
0x1260 <-- PL1b
0x0000
0x06a8 <-- Res[31:12] | Module L3
0x14b4
0x1968 <-- PL2b
0x0376
0x09ed <-- SAx0
0x0382
0x09ec <-- SSt0
0x028e
0x0d7c <-- SAx1
0x027a
0x0d7d <-- SSt1
0x01cc
0x11cd <-- SAx2
0x01ea
0x11cc <-- SSt2
0x00fc
0x16dc <-- SAx3
0x00da
0x16dd <-- SSt3
0x0bda
0x0006 <-- Res[3:0] | L | 0xbda | sector
0x0016
0x0fff <-- 
0x0000
0x001a <-- RoadID[23:0]
0x3a9a
0x7ebd <-- Track chi2[31:16] | Track d0[15:0]
0x9d30
0x7e8d <-- Track z0[31:16] | Track coth[15:0]
0x3e1d
0x7509 <-- Track phi0[31:16] | Track curv[15:0]
0x0000
0x016f <-- Res[31:12] | Module L0
0x24fa
0x4046 <-- IBL
0x0000
0x028b <-- Res[31:12] | Module L1
0x1610
0x25dc <-- PL0b
0x0000
0x0445 <-- Res[31:12] | Module L2
0x1580
0x1328 <-- PL1b
0x0000
0x06b5 <-- Res[31:12] | Module L3
0x1510
0x10d8 <-- PL2b
0x0412
0x09ed <-- SAx0
0x041c
0x09ec <-- SSt0
0x035e
0x0d7c <-- SAx1
0x034e
0x0d7d <-- SSt1
0x02d6
0x11cd <-- SAx2
0x02ec
0x11cc <-- SSt2
0x0240
0x16dc <-- SAx3
0x0224
0x16dd <-- SSt3
0x0bda
0x128e <-- Res[3:0] | L | 0xbda | sector
0x0016
0x0ffe <-- 
0x0000
0x0007 <-- RoadID[23:0]
0x649b
0x7e8f <-- Track chi2[31:16] | Track d0[15:0]
0x9de8
0x870f <-- Track z0[31:16] | Track coth[15:0]
0x3bdf
0x4446 <-- Track phi0[31:16] | Track curv[15:0]
0x0000
0x015c <-- Res[31:12] | Module L0
0x0000
0x0000 <-- IBL
0x0000
0x028c <-- Res[31:12] | Module L1
0x3102
0x7457 <-- PL0b
0x0000
0x0446 <-- Res[31:12] | Module L2
0x1384
0x20dd <-- PL1b
0x0000
0x06a9 <-- Res[31:12] | Module L3
0x262c
0x27bb <-- PL2b
0x03ec
0x09ef <-- SAx0
0x03ce
0x09ee <-- SSt0
0x03b8
0x0d80 <-- SAx1
0x037c
0x0d81 <-- SSt1
0x03d4
0x11d1 <-- SAx2
0x03ee
0x11d0 <-- SSt2
0x041a
0x16e0 <-- SAx3
0x041e
0x16e1 <-- SSt3
0xe0da
0x0000 <-- E0DA (begin debug block) | Length of debug block | Indeterminate[3:0]
0xe0df
0x0000 <-- E0DF (end debug block)   | Length of debug block | Indeterminate[3:0]
0x0000
0x0000 <-- L1ID
0x0000
0x0001 <-- ErrorFlag
0x0000
0x0000 <-- Res
0x0000
0x0000 <-- Res
