{
//========= Macro generated from object: h1/
//========= by ROOT version6.08/02
   
   TH1F *h1__1 = new TH1F("h1__1","",100,-50,50);
   h1__1->SetBinContent(0,81);
   h1__1->SetBinContent(2,1);
   h1__1->SetBinContent(4,1);
   h1__1->SetBinContent(7,1);
   h1__1->SetBinContent(11,1);
   h1__1->SetBinContent(17,1);
   h1__1->SetBinContent(21,4);
   h1__1->SetBinContent(22,1);
   h1__1->SetBinContent(36,1);
   h1__1->SetBinContent(37,1);
   h1__1->SetBinContent(38,1);
   h1__1->SetBinContent(40,1);
   h1__1->SetBinContent(41,1);
   h1__1->SetBinContent(42,1);
   h1__1->SetBinContent(45,1);
   h1__1->SetBinContent(46,1);
   h1__1->SetBinContent(47,5);
   h1__1->SetBinContent(48,3);
   h1__1->SetBinContent(49,8);
   h1__1->SetBinContent(50,82);
   h1__1->SetBinContent(51,109);
   h1__1->SetBinContent(52,2);
   h1__1->SetBinContent(53,1);
   h1__1->SetBinContent(54,2);
   h1__1->SetBinContent(55,1);
   h1__1->SetBinContent(56,4);
   h1__1->SetBinContent(57,1);
   h1__1->SetBinContent(58,2);
   h1__1->SetBinContent(59,1);
   h1__1->SetBinContent(62,1);
   h1__1->SetBinContent(63,1);
   h1__1->SetBinContent(64,1);
   h1__1->SetBinContent(65,1);
   h1__1->SetBinContent(68,1);
   h1__1->SetBinContent(77,1);
   h1__1->SetBinContent(81,1);
   h1__1->SetBinContent(82,1);
   h1__1->SetBinContent(85,1);
   h1__1->SetBinContent(89,1);
   h1__1->SetBinContent(101,68);
   h1__1->SetEntries(398);

   Int_t ci;      // for color index setting
   TColor *color; // for color definition with alpha
   ci = TColor::GetColor("#000099");
   h1__1->SetLineColor(ci);
   h1__1->GetXaxis()->SetLabelFont(42);
   h1__1->GetXaxis()->SetLabelSize(0.035);
   h1__1->GetXaxis()->SetTitleSize(0.035);
   h1__1->GetXaxis()->SetTitleFont(42);
   h1__1->GetYaxis()->SetLabelFont(42);
   h1__1->GetYaxis()->SetLabelSize(0.035);
   h1__1->GetYaxis()->SetTitleSize(0.035);
   h1__1->GetYaxis()->SetTitleFont(42);
   h1__1->GetZaxis()->SetLabelFont(42);
   h1__1->GetZaxis()->SetLabelSize(0.035);
   h1__1->GetZaxis()->SetTitleSize(0.035);
   h1__1->GetZaxis()->SetTitleFont(42);
   h1__1->Draw("");
}
